<?xml version="1.0" encoding="utf-8"?>
<!-- Generator: Adobe Illustrator 24.2.3, SVG Export Plug-In . SVG Version: 6.00 Build 0)  -->
<svg version="1.1" id="Layer_1" xmlns="http://www.w3.org/2000/svg" xmlns:xlink="http://www.w3.org/1999/xlink" x="0px" y="0px"
	 viewBox="0 0 1341.3 656.9" style="enable-background:new 0 0 1341.3 656.9;" xml:space="preserve">
<g>
	<g>
		<path d="M0,236.9c0,15.2,0,30.5,0,45.7c0.3,3.9,0.7,7.8,0.7,11.8c0,2.5,0.6,3.7,3.4,4.1c18.9,2.8,37.7,5.8,56.5,8.6
			c2.3,0.3,3.2,1,3.2,3.4c-0.1,11.9-0.1,23.7,0,35.6c0,2.4-0.9,3.1-3.2,3.4c-18.9,2.8-37.7,5.9-56.5,8.6c-2.8,0.4-3.4,1.6-3.4,4.1
			c0,3.9-0.5,7.8-0.7,11.8c0,15.2,0,30.5,0,45.7c1.8,0.2,3.6,0.7,5.5,0.7c16.6-0.7,33.2-1.4,49.8-2.2c2.8-0.1,5.6,0,8.6,0
			c0,8.2,0.1,15.9-0.1,23.7c-0.1,2.9,1.1,4,3.7,4.5c32.7,6.8,65.3,13.7,98,20.5c7.5,1.6,15.1,3,23,4.5c-0.8,1.4-1.5,2.5-2.1,3.5
			c-20.4,32.4-40.8,64.7-61.1,97.2c-2,3.3-4.4,4.2-7.8,4.4c-11.4,0.8-22.9,1.8-34.3,2.6c-3,0.2-4.2,1.5-5.1,4.3
			c-6.7,22.8-13.6,45.6-20.4,68.4c-0.4,1.5,0.1,3.3,0.1,5c18,0,36,0,54,0c1.1-0.2,2.1-0.6,3.2-0.6c45.7-0.6,91.5-1.1,137.2-1.7
			c44.6-0.5,89.2-1,133.8-1.5c2.3,0,3.5-0.7,4.7-2.7c24.9-43.9,49.8-87.8,74.8-131.7c2.1-3.7,3.5-8.8,6.7-10.5
			c3.1-1.7,8.2-0.2,12.3,0.1c22.3,1.5,44.6,3.1,66.9,4.4c25.6,1.5,51.1,2.9,76.7,3.7c35.7,1.1,71.4,2.1,107.2,2.4
			c57.2,0.6,114.4-0.2,171.5-4.5c23.5-1.8,47-3.7,70.4-6.3c28.6-3.1,57-7.8,85.1-14.1c38.7-8.7,76.2-20.8,112.1-37.6
			c53.5-24.9,99.4-60.5,142-100.6c8.3-7.8,16.6-15.7,24.9-23.6c0-1.7,0-3.5,0-5.2c-2-2-4-4-6-5.9c-9.2-8.6-18.4-17.2-27.7-25.7
			c-20.4-18.8-41.7-36.5-64.4-52.5c-47.1-33.2-99-56.1-154.5-71.1c-37.6-10.1-75.9-16.9-114.6-20.9c-25.7-2.6-51.4-5-77.2-6.7
			c-23-1.5-46.2-2.2-69.2-3c-15-0.5-30-0.8-45-0.7c-36.7,0.1-73.5,0.1-110.2,0.9c-33.7,0.8-67.4,2.6-101.1,4.2
			c-15.3,0.7-30.7,1.6-46,2.6c-16.4,1.1-32.9,2.3-49.3,3.5c-2.3,0.2-3.5-0.6-4.6-2.7c-5.8-10.5-11.8-20.8-17.7-31.2
			c-21.2-37.3-42.4-74.6-63.6-111.8c-0.6-1-2.2-2-3.4-2.1c-5.9-0.3-11.7-0.4-17.6-0.5c-43.5-0.5-87-1-130.5-1.5
			C199.8,1.5,161,1.1,122.1,0.7c-3.4,0-6.9-0.5-10.3-0.7c-18,0-36,0-54,0c0,1.8-0.5,3.7,0,5.3c6.5,22.1,13.1,44.2,19.7,66.2
			c1.8,6,1.8,5.8,8.2,6.3c11.1,0.7,22.1,1.7,33.2,2.4c2.7,0.2,4.4,1.4,5.8,3.7c17.2,27.5,34.5,54.9,51.8,82.3
			c4.4,6.9,8.7,13.8,13.1,20.9c-0.8,0.2-1.1,0.3-1.5,0.4c-39.9,8.2-79.7,16.5-119.6,24.7c-3.6,0.7-5,2-4.8,5.9
			c0.4,6.7,0.1,13.4,0.1,20.3c-1.1,0.1-1.8,0.2-2.6,0.2c-15-0.6-29.9-1.4-44.9-1.9C10.9,236.5,5.4,236.8,0,236.9z"/>
	</g>
</g>
</svg>
