<?xml version="1.0" encoding="UTF-8" standalone="no"?>
<svg
   xmlns:dc="http://purl.org/dc/elements/1.1/"
   xmlns:cc="http://creativecommons.org/ns#"
   xmlns:rdf="http://www.w3.org/1999/02/22-rdf-syntax-ns#"
   xmlns:svg="http://www.w3.org/2000/svg"
   xmlns="http://www.w3.org/2000/svg"
   xmlns:sodipodi="http://sodipodi.sourceforge.net/DTD/sodipodi-0.dtd"
   xmlns:inkscape="http://www.inkscape.org/namespaces/inkscape"
   style="margin: auto; background: rgb(241, 242, 243) none repeat scroll 0% 0%; display: block; shape-rendering: auto;"
   width="200px"
   height="200px"
   viewBox="0 0 100 100"
   preserveAspectRatio="xMidYMid"
   version="1.1"
   id="svg469"
   sodipodi:docname="Spinner-1s-200px.svg"
   inkscape:version="1.0.1 (c497b03c, 2020-09-10)"
   inkscape:export-filename="/Users/aroberts/GIT_Repos/scifi-solitaire/spacestation/appfactory/godot/assets/animations/spinner/28.png"
   inkscape:export-xdpi="120"
   inkscape:export-ydpi="120">
  <metadata
     id="metadata475">
    <rdf:RDF>
      <cc:Work
         rdf:about="">
        <dc:format>image/svg+xml</dc:format>
        <dc:type
           rdf:resource="http://purl.org/dc/dcmitype/StillImage" />
      </cc:Work>
    </rdf:RDF>
  </metadata>
  <defs
     id="defs473" />
  <sodipodi:namedview
     pagecolor="#ffffff"
     bordercolor="#666666"
     borderopacity="1"
     objecttolerance="10"
     gridtolerance="10"
     guidetolerance="10"
     inkscape:pageopacity="0"
     inkscape:pageshadow="2"
     inkscape:window-width="1440"
     inkscape:window-height="855"
     id="namedview471"
     showgrid="false"
     inkscape:zoom="3.238193"
     inkscape:cx="100"
     inkscape:cy="100"
     inkscape:window-x="0"
     inkscape:window-y="23"
     inkscape:window-maximized="1"
     inkscape:current-layer="svg469" />
  <g
     id="g355"
     inkscape:label="00"
     sodipodi:insensitive="true"
     style="display:none">
    <rect
       x="49.5"
       y="19"
       rx="0.5"
       ry="11"
       width="1"
       height="22"
       fill="#ffffff"
       id="rect353">
      <animate
         attributeName="opacity"
         values="1;0"
         keyTimes="0;1"
         dur="1s"
         begin="-0.9655172413793104s"
         repeatCount="indefinite" />
    </rect>
  </g>
  <g
     transform="rotate(12.413793,50,50)"
     id="g359"
     inkscape:label="01"
     sodipodi:insensitive="true"
     style="display:none">
    <rect
       x="49.5"
       y="19"
       rx="0.5"
       ry="11"
       width="1"
       height="22"
       fill="#ffffff"
       id="rect357">
      <animate
         attributeName="opacity"
         values="1;0"
         keyTimes="0;1"
         dur="1s"
         begin="-0.9310344827586207s"
         repeatCount="indefinite" />
    </rect>
  </g>
  <g
     transform="rotate(24.827586,50,50)"
     id="g363"
     inkscape:label="02"
     sodipodi:insensitive="true"
     style="display:none">
    <rect
       x="49.5"
       y="19"
       rx="0.5"
       ry="11"
       width="1"
       height="22"
       fill="#ffffff"
       id="rect361">
      <animate
         attributeName="opacity"
         values="1;0"
         keyTimes="0;1"
         dur="1s"
         begin="-0.896551724137931s"
         repeatCount="indefinite" />
    </rect>
  </g>
  <g
     transform="rotate(37.241379,50,50)"
     id="g367"
     inkscape:label="03"
     sodipodi:insensitive="true"
     style="display:none">
    <rect
       x="49.5"
       y="19"
       rx="0.5"
       ry="11"
       width="1"
       height="22"
       fill="#ffffff"
       id="rect365">
      <animate
         attributeName="opacity"
         values="1;0"
         keyTimes="0;1"
         dur="1s"
         begin="-0.8620689655172413s"
         repeatCount="indefinite" />
    </rect>
  </g>
  <g
     transform="rotate(49.655172,50,50)"
     id="g371"
     inkscape:label="04"
     sodipodi:insensitive="true"
     style="display:none">
    <rect
       x="49.5"
       y="19"
       rx="0.5"
       ry="11"
       width="1"
       height="22"
       fill="#ffffff"
       id="rect369">
      <animate
         attributeName="opacity"
         values="1;0"
         keyTimes="0;1"
         dur="1s"
         begin="-0.8275862068965517s"
         repeatCount="indefinite" />
    </rect>
  </g>
  <g
     transform="rotate(62.068966,50,50)"
     id="g375"
     inkscape:label="05"
     sodipodi:insensitive="true"
     style="display:none">
    <rect
       x="49.5"
       y="19"
       rx="0.5"
       ry="11"
       width="1"
       height="22"
       fill="#ffffff"
       id="rect373">
      <animate
         attributeName="opacity"
         values="1;0"
         keyTimes="0;1"
         dur="1s"
         begin="-0.7931034482758621s"
         repeatCount="indefinite" />
    </rect>
  </g>
  <g
     transform="rotate(74.482759,50,50)"
     id="g379"
     inkscape:label="06"
     sodipodi:insensitive="true"
     style="display:none">
    <rect
       x="49.5"
       y="19"
       rx="0.5"
       ry="11"
       width="1"
       height="22"
       fill="#ffffff"
       id="rect377">
      <animate
         attributeName="opacity"
         values="1;0"
         keyTimes="0;1"
         dur="1s"
         begin="-0.7586206896551724s"
         repeatCount="indefinite" />
    </rect>
  </g>
  <g
     transform="rotate(86.896552,50,50)"
     id="g383"
     inkscape:label="07"
     sodipodi:insensitive="true"
     style="display:none">
    <rect
       x="49.5"
       y="19"
       rx="0.5"
       ry="11"
       width="1"
       height="22"
       fill="#ffffff"
       id="rect381">
      <animate
         attributeName="opacity"
         values="1;0"
         keyTimes="0;1"
         dur="1s"
         begin="-0.7241379310344828s"
         repeatCount="indefinite" />
    </rect>
  </g>
  <g
     transform="rotate(99.310345,50,50)"
     id="g387"
     inkscape:label="08"
     sodipodi:insensitive="true"
     style="display:none">
    <rect
       x="49.5"
       y="19"
       rx="0.5"
       ry="11"
       width="1"
       height="22"
       fill="#ffffff"
       id="rect385">
      <animate
         attributeName="opacity"
         values="1;0"
         keyTimes="0;1"
         dur="1s"
         begin="-0.6896551724137931s"
         repeatCount="indefinite" />
    </rect>
  </g>
  <g
     transform="rotate(111.72414,50,50)"
     id="g391"
     inkscape:label="09"
     sodipodi:insensitive="true"
     style="display:none">
    <rect
       x="49.5"
       y="19"
       rx="0.5"
       ry="11"
       width="1"
       height="22"
       fill="#ffffff"
       id="rect389">
      <animate
         attributeName="opacity"
         values="1;0"
         keyTimes="0;1"
         dur="1s"
         begin="-0.6551724137931034s"
         repeatCount="indefinite" />
    </rect>
  </g>
  <g
     transform="rotate(124.13793,50,50)"
     id="g395"
     inkscape:label="10"
     sodipodi:insensitive="true"
     style="display:none">
    <rect
       x="49.5"
       y="19"
       rx="0.5"
       ry="11"
       width="1"
       height="22"
       fill="#ffffff"
       id="rect393">
      <animate
         attributeName="opacity"
         values="1;0"
         keyTimes="0;1"
         dur="1s"
         begin="-0.6206896551724138s"
         repeatCount="indefinite" />
    </rect>
  </g>
  <g
     transform="rotate(136.55172,50,50)"
     id="g399"
     inkscape:label="11"
     sodipodi:insensitive="true"
     style="display:none">
    <rect
       x="49.5"
       y="19"
       rx="0.5"
       ry="11"
       width="1"
       height="22"
       fill="#ffffff"
       id="rect397">
      <animate
         attributeName="opacity"
         values="1;0"
         keyTimes="0;1"
         dur="1s"
         begin="-0.5862068965517241s"
         repeatCount="indefinite" />
    </rect>
  </g>
  <g
     transform="rotate(148.96552,50,50)"
     id="g403"
     inkscape:label="12"
     sodipodi:insensitive="true"
     style="display:none">
    <rect
       x="49.5"
       y="19"
       rx="0.5"
       ry="11"
       width="1"
       height="22"
       fill="#ffffff"
       id="rect401">
      <animate
         attributeName="opacity"
         values="1;0"
         keyTimes="0;1"
         dur="1s"
         begin="-0.5517241379310345s"
         repeatCount="indefinite" />
    </rect>
  </g>
  <g
     transform="rotate(161.37931,50,50)"
     id="g407"
     inkscape:label="13"
     sodipodi:insensitive="true"
     style="display:none">
    <rect
       x="49.5"
       y="19"
       rx="0.5"
       ry="11"
       width="1"
       height="22"
       fill="#ffffff"
       id="rect405">
      <animate
         attributeName="opacity"
         values="1;0"
         keyTimes="0;1"
         dur="1s"
         begin="-0.5172413793103449s"
         repeatCount="indefinite" />
    </rect>
  </g>
  <g
     transform="rotate(173.7931,50,50)"
     id="g411"
     inkscape:label="14"
     sodipodi:insensitive="true"
     style="display:none">
    <rect
       x="49.5"
       y="19"
       rx="0.5"
       ry="11"
       width="1"
       height="22"
       fill="#ffffff"
       id="rect409">
      <animate
         attributeName="opacity"
         values="1;0"
         keyTimes="0;1"
         dur="1s"
         begin="-0.4827586206896552s"
         repeatCount="indefinite" />
    </rect>
  </g>
  <g
     transform="rotate(-173.7931,50,50)"
     id="g415"
     inkscape:label="15"
     sodipodi:insensitive="true"
     style="display:none">
    <rect
       x="49.5"
       y="19"
       rx="0.5"
       ry="11"
       width="1"
       height="22"
       fill="#ffffff"
       id="rect413">
      <animate
         attributeName="opacity"
         values="1;0"
         keyTimes="0;1"
         dur="1s"
         begin="-0.4482758620689655s"
         repeatCount="indefinite" />
    </rect>
  </g>
  <g
     transform="rotate(-161.37931,50,50)"
     id="g419"
     inkscape:label="16"
     sodipodi:insensitive="true"
     style="display:none">
    <rect
       x="49.5"
       y="19"
       rx="0.5"
       ry="11"
       width="1"
       height="22"
       fill="#ffffff"
       id="rect417">
      <animate
         attributeName="opacity"
         values="1;0"
         keyTimes="0;1"
         dur="1s"
         begin="-0.41379310344827586s"
         repeatCount="indefinite" />
    </rect>
  </g>
  <g
     transform="rotate(-148.96552,50,50)"
     id="g423"
     inkscape:label="17"
     sodipodi:insensitive="true"
     style="display:none">
    <rect
       x="49.5"
       y="19"
       rx="0.5"
       ry="11"
       width="1"
       height="22"
       fill="#ffffff"
       id="rect421">
      <animate
         attributeName="opacity"
         values="1;0"
         keyTimes="0;1"
         dur="1s"
         begin="-0.3793103448275862s"
         repeatCount="indefinite" />
    </rect>
  </g>
  <g
     transform="rotate(-136.55172,50,50)"
     id="g427"
     inkscape:label="18"
     sodipodi:insensitive="true"
     style="display:none">
    <rect
       x="49.5"
       y="19"
       rx="0.5"
       ry="11"
       width="1"
       height="22"
       fill="#ffffff"
       id="rect425">
      <animate
         attributeName="opacity"
         values="1;0"
         keyTimes="0;1"
         dur="1s"
         begin="-0.3448275862068966s"
         repeatCount="indefinite" />
    </rect>
  </g>
  <g
     transform="rotate(-124.13793,50,50)"
     id="g431"
     inkscape:label="19"
     sodipodi:insensitive="true"
     style="display:none">
    <rect
       x="49.5"
       y="19"
       rx="0.5"
       ry="11"
       width="1"
       height="22"
       fill="#ffffff"
       id="rect429">
      <animate
         attributeName="opacity"
         values="1;0"
         keyTimes="0;1"
         dur="1s"
         begin="-0.3103448275862069s"
         repeatCount="indefinite" />
    </rect>
  </g>
  <g
     transform="rotate(-111.72414,50,50)"
     id="g435"
     inkscape:label="20"
     sodipodi:insensitive="true"
     style="display:none">
    <rect
       x="49.5"
       y="19"
       rx="0.5"
       ry="11"
       width="1"
       height="22"
       fill="#ffffff"
       id="rect433">
      <animate
         attributeName="opacity"
         values="1;0"
         keyTimes="0;1"
         dur="1s"
         begin="-0.27586206896551724s"
         repeatCount="indefinite" />
    </rect>
  </g>
  <g
     transform="rotate(-99.310345,50,50)"
     id="g439"
     inkscape:label="21"
     sodipodi:insensitive="true"
     style="display:none">
    <rect
       x="49.5"
       y="19"
       rx="0.5"
       ry="11"
       width="1"
       height="22"
       fill="#ffffff"
       id="rect437">
      <animate
         attributeName="opacity"
         values="1;0"
         keyTimes="0;1"
         dur="1s"
         begin="-0.2413793103448276s"
         repeatCount="indefinite" />
    </rect>
  </g>
  <g
     transform="rotate(-86.896552,50,50)"
     id="g443"
     inkscape:label="22"
     sodipodi:insensitive="true"
     style="display:none">
    <rect
       x="49.5"
       y="19"
       rx="0.5"
       ry="11"
       width="1"
       height="22"
       fill="#ffffff"
       id="rect441">
      <animate
         attributeName="opacity"
         values="1;0"
         keyTimes="0;1"
         dur="1s"
         begin="-0.20689655172413793s"
         repeatCount="indefinite" />
    </rect>
  </g>
  <g
     transform="rotate(-74.482759,50,50)"
     id="g447"
     inkscape:label="23"
     sodipodi:insensitive="true"
     style="display:none">
    <rect
       x="49.5"
       y="19"
       rx="0.5"
       ry="11"
       width="1"
       height="22"
       fill="#ffffff"
       id="rect445">
      <animate
         attributeName="opacity"
         values="1;0"
         keyTimes="0;1"
         dur="1s"
         begin="-0.1724137931034483s"
         repeatCount="indefinite" />
    </rect>
  </g>
  <g
     transform="rotate(-62.068966,50,50)"
     id="g451"
     inkscape:label="24"
     sodipodi:insensitive="true"
     style="display:none">
    <rect
       x="49.5"
       y="19"
       rx="0.5"
       ry="11"
       width="1"
       height="22"
       fill="#ffffff"
       id="rect449">
      <animate
         attributeName="opacity"
         values="1;0"
         keyTimes="0;1"
         dur="1s"
         begin="-0.13793103448275862s"
         repeatCount="indefinite" />
    </rect>
  </g>
  <g
     transform="rotate(-49.655172,50,50)"
     id="g455"
     inkscape:label="25"
     sodipodi:insensitive="true"
     style="display:none">
    <rect
       x="49.5"
       y="19"
       rx="0.5"
       ry="11"
       width="1"
       height="22"
       fill="#ffffff"
       id="rect453">
      <animate
         attributeName="opacity"
         values="1;0"
         keyTimes="0;1"
         dur="1s"
         begin="-0.10344827586206896s"
         repeatCount="indefinite" />
    </rect>
  </g>
  <g
     transform="rotate(-37.241379,50,50)"
     id="g459"
     inkscape:label="26"
     sodipodi:insensitive="true"
     style="display:none">
    <rect
       x="49.5"
       y="19"
       rx="0.5"
       ry="11"
       width="1"
       height="22"
       fill="#ffffff"
       id="rect457">
      <animate
         attributeName="opacity"
         values="1;0"
         keyTimes="0;1"
         dur="1s"
         begin="-0.06896551724137931s"
         repeatCount="indefinite" />
    </rect>
  </g>
  <g
     transform="rotate(-24.827586,50,50)"
     id="g463"
     inkscape:label="27"
     sodipodi:insensitive="true"
     style="display:none">
    <rect
       x="49.5"
       y="19"
       rx="0.5"
       ry="11"
       width="1"
       height="22"
       fill="#ffffff"
       id="rect461">
      <animate
         attributeName="opacity"
         values="1;0"
         keyTimes="0;1"
         dur="1s"
         begin="-0.034482758620689655s"
         repeatCount="indefinite" />
    </rect>
  </g>
  <g
     transform="rotate(-12.413793,50,50)"
     id="g467"
     inkscape:label="28"
     sodipodi:insensitive="true"
     style="display:inline">
    <rect
       x="49.5"
       y="19"
       rx="0.5"
       ry="11"
       width="1"
       height="22"
       fill="#ffffff"
       id="rect465">
      <animate
         attributeName="opacity"
         values="1;0"
         keyTimes="0;1"
         dur="1s"
         begin="0s"
         repeatCount="indefinite" />
    </rect>
  </g>
  <!-- [ldio] generated by https://loading.io/ -->
</svg>
