[gd_scene load_steps=2 format=2]

[ext_resource path="res://archive/Node2D.gd" type="Script" id=1]


[node name="Node2D" type="Node2D"]
script = ExtResource( 1 )

[node name="MarginContainer" type="MarginContainer" parent="."]
margin_right = 1082.0
margin_bottom = 2022.0
__meta__ = {
"_edit_use_anchors_": false
}
