<?xml version="1.0" encoding="UTF-8" standalone="no"?>
<!-- Created with Inkscape (http://www.inkscape.org/) -->

<svg
   xmlns:osb="http://www.openswatchbook.org/uri/2009/osb"
   xmlns:dc="http://purl.org/dc/elements/1.1/"
   xmlns:cc="http://creativecommons.org/ns#"
   xmlns:rdf="http://www.w3.org/1999/02/22-rdf-syntax-ns#"
   xmlns:svg="http://www.w3.org/2000/svg"
   xmlns="http://www.w3.org/2000/svg"
   xmlns:xlink="http://www.w3.org/1999/xlink"
   xmlns:sodipodi="http://sodipodi.sourceforge.net/DTD/sodipodi-0.dtd"
   xmlns:inkscape="http://www.inkscape.org/namespaces/inkscape"
   width="1080"
   height="2220"
   viewBox="0 0 285.74999 587.37501"
   version="1.1"
   id="svg8"
   inkscape:version="0.92.4 5da689c313, 2019-01-14"
   sodipodi:docname="playing_field.svg">
  <defs
     id="defs2">
    <linearGradient
       id="linearGradient6436"
       osb:paint="solid">
      <stop
         style="stop-color:#aa4400;stop-opacity:1;"
         offset="0"
         id="stop6434" />
    </linearGradient>
    <linearGradient
       inkscape:collect="always"
       id="linearGradient4718">
      <stop
         style="stop-color:#005500;stop-opacity:1"
         offset="0"
         id="stop4714" />
      <stop
         style="stop-color:#44aa00;stop-opacity:0;"
         offset="1"
         id="stop4716" />
    </linearGradient>
    <linearGradient
       id="linearGradient4684"
       inkscape:collect="always">
      <stop
         id="stop4680"
         offset="0"
         style="stop-color:#00ff00;stop-opacity:1" />
      <stop
         id="stop4682"
         offset="1"
         style="stop-color:#44aa00;stop-opacity:0;" />
    </linearGradient>
    <linearGradient
       id="linearGradient821"
       osb:paint="solid">
      <stop
         style="stop-color:#ffffff;stop-opacity:1;"
         offset="0"
         id="stop819" />
    </linearGradient>
    <linearGradient
       inkscape:collect="always"
       xlink:href="#linearGradient4684"
       id="linearGradient835"
       gradientUnits="userSpaceOnUse"
       x1="137.58333"
       y1="297"
       x2="137.58333"
       y2="21.833321"
       gradientTransform="translate(-285.75,-85.999965)"
       spreadMethod="pad" />
    <filter
       style="color-interpolation-filters:sRGB"
       inkscape:label="Drop Shadow"
       id="filter958">
      <feFlood
         flood-opacity="0.498039"
         flood-color="rgb(0,0,0)"
         result="flood"
         id="feFlood948" />
      <feComposite
         in="flood"
         in2="SourceGraphic"
         operator="in"
         result="composite1"
         id="feComposite950" />
      <feGaussianBlur
         in="composite1"
         stdDeviation="3"
         result="blur"
         id="feGaussianBlur952" />
      <feOffset
         dx="6"
         dy="6"
         result="offset"
         id="feOffset954" />
      <feComposite
         in="offset"
         in2="SourceGraphic"
         operator="out"
         result="composite2"
         id="feComposite956" />
    </filter>
    <linearGradient
       inkscape:collect="always"
       xlink:href="#linearGradient4684"
       id="linearGradient4696"
       gradientUnits="userSpaceOnUse"
       gradientTransform="translate(0,3.5e-5)"
       x1="137.58333"
       y1="297"
       x2="137.58333"
       y2="21.833321"
       spreadMethod="pad" />
    <linearGradient
       inkscape:collect="always"
       xlink:href="#linearGradient4718"
       id="linearGradient4700"
       gradientUnits="userSpaceOnUse"
       gradientTransform="translate(0,3.5e-5)"
       x1="137.58333"
       y1="297"
       x2="137.58333"
       y2="122.37494"
       spreadMethod="pad" />
    <linearGradient
       inkscape:collect="always"
       xlink:href="#linearGradient4718"
       id="linearGradient4726"
       gradientUnits="userSpaceOnUse"
       gradientTransform="translate(0,3.5e-5)"
       x1="137.58333"
       y1="297"
       x2="138.19537"
       y2="265.04593"
       spreadMethod="pad" />
    <linearGradient
       inkscape:collect="always"
       xlink:href="#linearGradient4718"
       id="linearGradient4738"
       gradientUnits="userSpaceOnUse"
       gradientTransform="translate(0,3.5e-5)"
       x1="137.58333"
       y1="297"
       x2="137.58333"
       y2="122.37494"
       spreadMethod="pad" />
    <linearGradient
       inkscape:collect="always"
       xlink:href="#linearGradient4718"
       id="linearGradient4740"
       gradientUnits="userSpaceOnUse"
       gradientTransform="translate(0,3.5e-5)"
       x1="137.58333"
       y1="297"
       x2="138.19537"
       y2="265.04593"
       spreadMethod="pad" />
    <filter
       style="color-interpolation-filters:sRGB;"
       inkscape:label="Drop Shadow"
       id="filter4984">
      <feFlood
         flood-opacity="0.498039"
         flood-color="rgb(0,0,0)"
         result="flood"
         id="feFlood4974" />
      <feComposite
         in="flood"
         in2="SourceGraphic"
         operator="in"
         result="composite1"
         id="feComposite4976" />
      <feGaussianBlur
         in="composite1"
         stdDeviation="3"
         result="blur"
         id="feGaussianBlur4978" />
      <feOffset
         dx="3"
         dy="3"
         result="offset"
         id="feOffset4980" />
      <feComposite
         in="offset"
         in2="SourceGraphic"
         operator="out"
         result="composite2"
         id="feComposite4982" />
    </filter>
  </defs>
  <sodipodi:namedview
     id="base"
     pagecolor="#ffffff"
     bordercolor="#666666"
     borderopacity="1.0"
     inkscape:pageopacity="0.0"
     inkscape:pageshadow="2"
     inkscape:zoom="0.37387387"
     inkscape:cx="542.6747"
     inkscape:cy="1110"
     inkscape:document-units="px"
     inkscape:current-layer="layer3"
     showgrid="false"
     units="px"
     showguides="false"
     inkscape:window-width="1920"
     inkscape:window-height="1019"
     inkscape:window-x="0"
     inkscape:window-y="32"
     inkscape:window-maximized="1"
     inkscape:guide-bbox="true">
    <inkscape:grid
       type="xygrid"
       id="grid815" />
    <sodipodi:guide
       position="142.875,510.64583"
       orientation="1,0"
       id="guide875"
       inkscape:locked="false" />
    <sodipodi:guide
       position="-21.166666,542.39583"
       orientation="0,1"
       id="guide4750"
       inkscape:locked="false" />
    <sodipodi:guide
       position="-15.875,529.16666"
       orientation="0,1"
       id="guide4752"
       inkscape:locked="false" />
    <sodipodi:guide
       position="309.5625,436.5625"
       orientation="0,1"
       id="guide4754"
       inkscape:locked="false" />
    <sodipodi:guide
       position="13.229166,447.14584"
       orientation="1,0"
       id="guide4988"
       inkscape:locked="false" />
    <sodipodi:guide
       position="272.52082,448.46876"
       orientation="1,0"
       id="guide4990"
       inkscape:locked="false" />
    <sodipodi:guide
       position="-21.166666,365.125"
       orientation="0,1"
       id="guide6440"
       inkscape:locked="false" />
    <sodipodi:guide
       position="-14.552083,330.72917"
       orientation="0,1"
       id="guide6448"
       inkscape:locked="false" />
  </sodipodi:namedview>
  <metadata
     id="metadata5">
    <rdf:RDF>
      <cc:Work
         rdf:about="">
        <dc:format>image/svg+xml</dc:format>
        <dc:type
           rdf:resource="http://purl.org/dc/dcmitype/StillImage" />
        <dc:title />
      </cc:Work>
    </rdf:RDF>
  </metadata>
  <g
     inkscape:label="base"
     inkscape:groupmode="layer"
     id="layer1"
     transform="translate(0,290.37502)"
     style="display:inline"
     sodipodi:insensitive="true">
    <g
       id="g4722"
       inkscape:label="light_green_grad"
       transform="matrix(1,0,0,1.15625,0,-46.406247)">
      <rect
         transform="scale(-1)"
         style="display:inline;opacity:0.75;fill:url(#linearGradient835);fill-opacity:1;stroke:none;stroke-width:1.08299994;stroke-linecap:round;stroke-linejoin:round;stroke-miterlimit:4;stroke-dasharray:none;stroke-opacity:1"
         id="rect833"
         width="285.75"
         height="508"
         x="-285.75"
         y="-297"
         inkscape:label="light_green_grad" />
      <rect
         inkscape:label="light_green_grad"
         y="-211"
         x="4.3923395e-14"
         height="508"
         width="285.75"
         id="rect4694"
         style="display:inline;opacity:0.75;fill:url(#linearGradient4696);fill-opacity:1;stroke:none;stroke-width:1.08299994;stroke-linecap:round;stroke-linejoin:round;stroke-miterlimit:4;stroke-dasharray:none;stroke-opacity:1" />
    </g>
    <g
       id="g4748"
       inkscape:label="dark_green_grad"
       transform="matrix(1,0,0,1.15625,0,-46.406247)">
      <g
         inkscape:label="dark_green_grad"
         id="g4730">
        <rect
           inkscape:label="base"
           y="-211"
           x="4.3923395e-14"
           height="508"
           width="285.75"
           id="rect4698"
           style="display:inline;opacity:0.75;fill:url(#linearGradient4700);fill-opacity:1;stroke:none;stroke-width:1.08299994;stroke-linecap:round;stroke-linejoin:round;stroke-miterlimit:4;stroke-dasharray:none;stroke-opacity:1" />
        <rect
           style="display:inline;opacity:0.75;fill:url(#linearGradient4726);fill-opacity:1;stroke:none;stroke-width:1.08299994;stroke-linecap:round;stroke-linejoin:round;stroke-miterlimit:4;stroke-dasharray:none;stroke-opacity:1"
           id="rect4724"
           width="285.75"
           height="508"
           x="4.3923395e-14"
           y="-211"
           inkscape:label="base" />
      </g>
      <g
         transform="rotate(180,142.875,43)"
         id="g4736"
         inkscape:label="dark_green_grad">
        <rect
           style="display:inline;opacity:0.75;fill:url(#linearGradient4738);fill-opacity:1;stroke:none;stroke-width:1.08299994;stroke-linecap:round;stroke-linejoin:round;stroke-miterlimit:4;stroke-dasharray:none;stroke-opacity:1"
           id="rect4732"
           width="285.75"
           height="508"
           x="4.3923395e-14"
           y="-211"
           inkscape:label="base" />
        <rect
           inkscape:label="base"
           y="-211"
           x="4.3923395e-14"
           height="508"
           width="285.75"
           id="rect4734"
           style="display:inline;opacity:0.75;fill:url(#linearGradient4740);fill-opacity:1;stroke:none;stroke-width:1.08299994;stroke-linecap:round;stroke-linejoin:round;stroke-miterlimit:4;stroke-dasharray:none;stroke-opacity:1" />
      </g>
    </g>
  </g>
  <g
     inkscape:groupmode="layer"
     id="layer2"
     inkscape:label="border"
     style="display:inline;opacity:1"
     transform="translate(0,79.374999)"
     sodipodi:insensitive="true">
    <path
       style="fill:#c87137;fill-opacity:1;stroke:none;stroke-width:0.44692993;stroke-miterlimit:4;stroke-dasharray:none;stroke-opacity:1;paint-order:normal"
       d="M 0,-79.375001 V 507.99999 H 285.75 V -79.375001 Z m 13.229167,7.648112 H 272.52083 c 3.66448,0 6.61458,3.411049 6.61458,7.648112 V 492.70377 c 0,4.23705 -2.9501,7.64811 -6.61458,7.64811 H 13.229167 c -3.6644873,0 -6.6145838,-3.41106 -6.6145838,-7.64811 V -64.078777 c 0,-4.237063 2.9500965,-7.648112 6.6145838,-7.648112 z"
       id="rect4671"
       inkscape:connector-curvature="0"
       inkscape:label="border" />
    <path
       inkscape:label="border_shadow"
       inkscape:connector-curvature="0"
       id="path4756"
       d="M 0,-79.375001 V 507.99999 H 285.75 V -79.375001 Z m 13.229167,7.648112 H 272.52083 c 3.66448,0 6.61458,3.411049 6.61458,7.648112 V 492.70377 c 0,4.23705 -2.9501,7.64811 -6.61458,7.64811 H 13.229167 c -3.6644873,0 -6.6145838,-3.41106 -6.6145838,-7.64811 V -64.078777 c 0,-4.237063 2.9500965,-7.648112 6.6145838,-7.648112 z"
       style="fill:#c87137;fill-opacity:1;stroke:none;stroke-width:0.44692993;stroke-miterlimit:4;stroke-dasharray:none;stroke-opacity:1;paint-order:normal;filter:url(#filter4984)" />
    <path
       style="fill:#c87137;fill-opacity:1;stroke:none;stroke-width:0.44692993;stroke-miterlimit:4;stroke-dasharray:none;stroke-opacity:1;paint-order:normal;filter:url(#filter4984)"
       d="M 0,-79.375001 V 507.99999 H 285.75 V -79.375001 Z m 13.229167,7.648112 H 272.52083 c 3.66448,0 6.61458,3.411049 6.61458,7.648112 V 492.70377 c 0,4.23705 -2.9501,7.64811 -6.61458,7.64811 H 13.229167 c -3.6644873,0 -6.6145838,-3.41106 -6.6145838,-7.64811 V -64.078777 c 0,-4.237063 2.9500965,-7.648112 6.6145838,-7.648112 z"
       id="path4986"
       inkscape:connector-curvature="0"
       inkscape:label="border_shadow"
       transform="rotate(180,142.875,214.31249)" />
  </g>
  <g
     inkscape:groupmode="layer"
     id="layer3"
     inkscape:label="scenario_stacks"
     transform="translate(0,79.374999)"
     sodipodi:insensitive="true">
    <rect
       y="-21.166666"
       x="212.98958"
       height="92.604164"
       width="52.916668"
       id="rect4994"
       style="fill:#afe9af;fill-opacity:1;stroke:none;stroke-width:1.32291663;stroke-linecap:square;stroke-linejoin:bevel;stroke-miterlimit:4;stroke-dasharray:2.64583331, 2.64583330999999999;stroke-dashoffset:6.35000086;stroke-opacity:1;paint-order:normal"
       inkscape:label="4"
       sodipodi:insensitive="true" />
    <rect
       style="fill:#afe9af;fill-opacity:1;stroke:none;stroke-width:1.32291663;stroke-linecap:square;stroke-linejoin:bevel;stroke-miterlimit:4;stroke-dasharray:2.64583331, 2.64583330999999999;stroke-dashoffset:6.35000086;stroke-opacity:1;paint-order:normal"
       id="rect4992"
       width="52.916668"
       height="92.604164"
       x="149.48958"
       y="-21.166666"
       inkscape:label="3"
       sodipodi:insensitive="true" />
    <rect
       y="-21.166666"
       x="83.34375"
       height="92.604164"
       width="52.916668"
       id="rect4996"
       style="fill:#afe9af;fill-opacity:1;stroke:none;stroke-width:1.32291663;stroke-linecap:square;stroke-linejoin:bevel;stroke-miterlimit:4;stroke-dasharray:2.64583331, 2.64583330999999999;stroke-dashoffset:6.35000038;stroke-opacity:1;paint-order:normal"
       inkscape:label="2"
       sodipodi:insensitive="true" />
    <rect
       style="fill:#afe9af;fill-opacity:1;stroke:none;stroke-width:1.32291663;stroke-linecap:square;stroke-linejoin:bevel;stroke-miterlimit:4;stroke-dasharray:2.64583331, 2.64583330999999999;stroke-dashoffset:6.35000038;stroke-opacity:1;paint-order:normal"
       id="rect4998"
       width="52.916668"
       height="92.604164"
       x="19.84375"
       y="-21.166666"
       inkscape:label="1" />
    <rect
       inkscape:label="1a"
       y="2.6458354"
       x="19.84375"
       height="92.604164"
       width="52.916668"
       id="rect6442"
       style="display:none;fill:#afe9af;fill-opacity:1;stroke:#aa4400;stroke-width:1.32291663;stroke-linecap:square;stroke-linejoin:bevel;stroke-miterlimit:4;stroke-dasharray:2.64583331, 2.64583331;stroke-dashoffset:6.35000038;stroke-opacity:1;paint-order:normal" />
    <rect
       style="display:none;fill:#afe9af;fill-opacity:1;stroke:#aa4400;stroke-width:1.32291663;stroke-linecap:square;stroke-linejoin:bevel;stroke-miterlimit:4;stroke-dasharray:2.64583331, 2.64583331;stroke-dashoffset:6.35000038;stroke-opacity:1;paint-order:normal"
       id="rect6444"
       width="52.916668"
       height="92.604164"
       x="19.84375"
       y="26.458336"
       inkscape:label="1b" />
    <rect
       inkscape:label="1c"
       y="50.270836"
       x="19.84375"
       height="92.604164"
       width="52.916668"
       id="rect6446"
       style="display:none;fill:#afe9af;fill-opacity:1;stroke:#aa4400;stroke-width:1.32291663;stroke-linecap:square;stroke-linejoin:bevel;stroke-miterlimit:4;stroke-dasharray:2.64583331, 2.64583331;stroke-dashoffset:6.35000038;stroke-opacity:1;paint-order:normal" />
  </g>
  <g
     inkscape:groupmode="layer"
     id="layer4"
     inkscape:label="crew_deck"
     transform="translate(0,79.374999)"
     sodipodi:insensitive="true">
    <rect
       y="352.55728"
       x="199.76042"
       height="115.75521"
       width="66.145836"
       id="rect6470"
       style="fill:#afe9af;fill-opacity:1;stroke:none;stroke-width:1.65364587;stroke-linecap:square;stroke-linejoin:bevel;stroke-miterlimit:4;stroke-dasharray:3.30729161, 3.30729161;stroke-dashoffset:6.35000086;stroke-opacity:1;paint-order:normal"
       inkscape:label="crew_deck" />
  </g>
  <g
     inkscape:groupmode="layer"
     id="layer5"
     inkscape:label="scenario_deck"
     transform="translate(0,79.374999)"
     sodipodi:insensitive="true">
    <rect
       inkscape:label="scenario_deck"
       style="fill:#afe9af;fill-opacity:1;stroke:none;stroke-width:1.65364587;stroke-linecap:square;stroke-linejoin:bevel;stroke-miterlimit:4;stroke-dasharray:3.30729162, 3.30729162;stroke-dashoffset:6.35000086;stroke-opacity:1;paint-order:normal"
       id="rect6467"
       width="66.145836"
       height="115.75521"
       x="19.84375"
       y="352.55728" />
  </g>
  <g
     id="g6465"
     inkscape:label="hand"
     transform="translate(-17.197919)">
    <rect
       inkscape:label="hand_03"
       style="fill:#afe9af;fill-opacity:1;stroke:none;stroke-width:1.98437488;stroke-linecap:square;stroke-linejoin:bevel;stroke-miterlimit:4;stroke-dasharray:3.96874993, 3.96874993;stroke-dashoffset:6.35000086;stroke-opacity:1;paint-order:normal"
       id="rect6456"
       width="79.375"
       height="138.90625"
       x="166.6875"
       y="256.64584" />
    <rect
       y="256.64584"
       x="120.38541"
       height="138.90625"
       width="79.375"
       id="rect6460"
       style="fill:#afe9af;fill-opacity:1;stroke:none;stroke-width:1.98437488;stroke-linecap:square;stroke-linejoin:bevel;stroke-miterlimit:4;stroke-dasharray:3.96874993, 3.96874993;stroke-dashoffset:6.35000086;stroke-opacity:1;paint-order:normal"
       inkscape:label="hand_02" />
    <rect
       y="256.64584"
       x="74.083336"
       height="138.90625"
       width="79.375"
       id="rect6451"
       style="fill:#afe9af;fill-opacity:1;stroke:none;stroke-width:1.98437488;stroke-linecap:square;stroke-linejoin:bevel;stroke-miterlimit:4;stroke-dasharray:3.96874993, 3.96874993;stroke-dashoffset:6.35000086;stroke-opacity:1;paint-order:normal"
       inkscape:label="hand_01" />
  </g>
  <g
     inkscape:groupmode="layer"
     id="layer6"
     inkscape:label="hand"
     sodipodi:insensitive="true" />
</svg>
