{
  "frigate": {
    "dep_names": ["command", "support", "infrastructure"],
    "officers_per": 1,
    "crew_per": 2,
    "scenarios_per": 12
  },
  "combat_cruiser": {
    "dep_names": ["command", "support", "infrastructure"],
    "officers_per": 2,
    "crew_per": 4,
    "scenarios_per": 15
  },
  "merchant_cruiser": {
    "dep_names": ["command", "support", "infrastructure"],
    "officers_per": 2,
    "crew_per": 4,
    "scenarios_per": 15
  },
  "combat_battleship": {
    "dep_names": ["command", "support", "infrastructure"],
    "officers_per": 3,
    "crew_per": 6,
    "scenarios_per": 18
  },
  "merchant_freighter": {
    "dep_names": ["command", "support", "infrastructure"],
    "officers_per": 3,
    "crew_per": 6,
    "scenarios_per": 18
  }
}