<?xml version="1.0" encoding="UTF-8" standalone="no"?>
<svg
   xmlns:dc="http://purl.org/dc/elements/1.1/"
   xmlns:cc="http://creativecommons.org/ns#"
   xmlns:rdf="http://www.w3.org/1999/02/22-rdf-syntax-ns#"
   xmlns:svg="http://www.w3.org/2000/svg"
   xmlns="http://www.w3.org/2000/svg"
   xmlns:xlink="http://www.w3.org/1999/xlink"
   xmlns:sodipodi="http://sodipodi.sourceforge.net/DTD/sodipodi-0.dtd"
   xmlns:inkscape="http://www.inkscape.org/namespaces/inkscape"
   width="512"
   height="300"
   viewBox="0 0 135.46666 79.375002"
   version="1.1"
   id="svg8"
   inkscape:version="1.0.1 (c497b03c, 2020-09-10)"
   sodipodi:docname="you_win.svg"
   inkscape:export-filename="/Users/aroberts/GIT_Repos/scifi-solitaire/spacestation/appfactory/godot/assets/buttons/you_win_star_guard_3D_standard.png"
   inkscape:export-xdpi="96"
   inkscape:export-ydpi="96">
  <defs
     id="defs2" />
  <sodipodi:namedview
     id="base"
     pagecolor="#ffffff"
     bordercolor="#666666"
     borderopacity="1.0"
     inkscape:pageopacity="0.0"
     inkscape:pageshadow="2"
     inkscape:zoom="2.0039062"
     inkscape:cx="233.54386"
     inkscape:cy="150"
     inkscape:document-units="px"
     inkscape:current-layer="layer1"
     inkscape:document-rotation="0"
     showgrid="true"
     units="px"
     showguides="true"
     inkscape:guide-bbox="true"
     inkscape:window-width="1440"
     inkscape:window-height="855"
     inkscape:window-x="0"
     inkscape:window-y="23"
     inkscape:window-maximized="1">
    <inkscape:grid
       type="xygrid"
       id="grid10" />
    <sodipodi:guide
       position="39.687498,66.145835"
       orientation="1,0"
       id="guide38" />
    <sodipodi:guide
       position="92.604162,84.666669"
       orientation="1,0"
       id="guide40" />
  </sodipodi:namedview>
  <metadata
     id="metadata5">
    <rdf:RDF>
      <cc:Work
         rdf:about="">
        <dc:format>image/svg+xml</dc:format>
        <dc:type
           rdf:resource="http://purl.org/dc/dcmitype/StillImage" />
        <dc:title />
      </cc:Work>
    </rdf:RDF>
  </metadata>
  <g
     inkscape:label="Layer 1"
     inkscape:groupmode="layer"
     id="layer1">
    <g
       id="g56"
       inkscape:label="congrats"
       sodipodi:insensitive="true"
       style="display:inline">
      <path
         style="display:none;fill:none;stroke:#000000;stroke-width:0.285025px;stroke-linecap:butt;stroke-linejoin:miter;stroke-opacity:1"
         d="m 5.558243,47.636251 c 34.395831,-21.166667 87.312495,-21.166667 124.354167,0"
         id="path36"
         sodipodi:nodetypes="cc"
         inkscape:label="curve" />
      <text
         xml:space="preserve"
         style="font-style:normal;font-variant:normal;font-weight:normal;font-stretch:normal;font-size:10.5833px;line-height:1.25;font-family:'Omega Flight 3D';-inkscape-font-specification:'Omega Flight 3D, Normal';font-variant-ligatures:normal;font-variant-caps:normal;font-variant-numeric:normal;font-variant-east-asian:normal;fill:#000000;fill-opacity:1;stroke:none;stroke-width:0.264583"
         id="text44"
         inkscape:label="congrats"><textPath
           xlink:href="#path36"
           id="textPath49"><tspan
             id="tspan42"
             style="font-style:normal;font-variant:normal;font-weight:normal;font-stretch:normal;font-size:10.5833px;font-family:'Omega Flight 3D';-inkscape-font-specification:'Omega Flight 3D, Normal';font-variant-ligatures:normal;font-variant-caps:normal;font-variant-numeric:normal;font-variant-east-asian:normal;stroke-width:0.264583">  Congratulations! </tspan></textPath></text>
    </g>
    <g
       id="g56-7"
       inkscape:label="congrats"
       style="display:inline"
       sodipodi:insensitive="true">
      <path
         style="display:none;fill:none;stroke:#000000;stroke-width:0.285025px;stroke-linecap:butt;stroke-linejoin:miter;stroke-opacity:1"
         d="m 5.558243,47.636251 c 34.395831,-21.166667 87.312495,-21.166667 124.354167,0"
         id="path36-52"
         sodipodi:nodetypes="cc"
         inkscape:label="curve" />
      <g
         aria-label="  Congratulations! "
         id="text44-9"
         style="font-style:normal;font-variant:normal;font-weight:normal;font-stretch:normal;font-size:10.5833px;line-height:1.25;font-family:'Omega Flight 3D';-inkscape-font-specification:'Omega Flight 3D, Normal';font-variant-ligatures:normal;font-variant-caps:normal;font-variant-numeric:normal;font-variant-east-asian:normal;fill:#000000;fill-opacity:1;stroke:none;stroke-width:0.264583"
         inkscape:label="congrats"
         sodipodi:insensitive="true">
        <path
           style="font-style:normal;font-variant:normal;font-weight:normal;font-stretch:normal;font-size:10.5833px;font-family:'Omega Flight 3D';-inkscape-font-specification:'Omega Flight 3D, Normal';font-variant-ligatures:normal;font-variant-caps:normal;font-variant-numeric:normal;font-variant-east-asian:normal;fill:#ffffff;stroke-width:0.264583"
           d="m 13.482891,43.256459 3.737383,-1.776399 -0.649681,-1.366869 -3.421951,1.626473 c -0.13382,0.06361 -0.267167,0.10355 -0.414144,0.114819 -0.142434,0.02083 -0.288938,0.0084 -0.420869,-0.0226 -0.14149,-0.02649 -0.272949,-0.08119 -0.384819,-0.168632 -0.107326,-0.07788 -0.190521,-0.178957 -0.254126,-0.312776 l -0.745088,-1.567598 c -0.05906,-0.124261 -0.08491,-0.252593 -0.08207,-0.394554 0.0028,-0.141962 0.04343,-0.278436 0.112225,-0.40488 0.05924,-0.1219 0.142139,-0.243329 0.243683,-0.350183 0.106088,-0.0973 0.21672,-0.185033 0.350539,-0.248639 l 3.421951,-1.626473 -0.645137,-1.35731 -3.737383,1.776399 C 9.9243055,37.495264 9.4798926,37.940855 9.2747373,38.495366 9.069582,39.049877 9.1282887,39.666461 9.4554007,40.354674 L 10.30044,42.13256 c 0.327112,0.688213 0.772703,1.132626 1.332229,1.32368 0.559527,0.191053 1.181125,0.118245 1.850222,-0.199781 z"
           id="path187"
           inkscape:label="C"
           sodipodi:insensitive="true" />
        <g
           id="g1050"
           inkscape:label="o"
           sodipodi:insensitive="true">
          <path
             id="path1014"
             style="font-style:normal;font-variant:normal;font-weight:normal;font-stretch:normal;font-size:10.5833px;font-family:'Omega Flight 3D';-inkscape-font-specification:'Omega Flight 3D, Normal';font-variant-ligatures:normal;font-variant-caps:normal;font-variant-numeric:normal;font-variant-east-asian:normal;display:inline;fill:#ffffff;stroke-width:0.999999"
             d="m 80.535156,123.99609 c -1.168509,0.0246 -2.407456,0.28444 -3.714844,0.78516 l -8.666015,3.32031 c -2.614776,1.00145 -4.421214,2.54907 -5.357422,4.57813 -0.936208,2.02906 -0.895277,4.36911 0.134766,7.05859 l 2.660156,6.94922 c 1.030061,2.68949 2.578753,4.49436 4.630859,5.37891 2.052106,0.88455 4.416475,0.79245 7.03125,-0.20899 l 8.666016,-3.31836 c 2.614775,-1.00145 4.397776,-2.49828 5.333984,-4.52734 0.936208,-2.02906 0.918745,-4.42185 -0.111328,-7.11133 l -2.660156,-6.94727 c -1.030061,-2.68948 -2.602191,-4.44357 -4.654297,-5.32812 -1.026055,-0.44227 -2.12446,-0.65346 -3.292969,-0.62891 z m 0.427735,7.53516 c 0.18667,-0.002 0.370793,0.002 0.548828,0.0195 l -0.03711,0.0156 c 0.197896,0.18121 0.396087,0.36112 0.556641,0.55664 0.160543,0.19551 0.320417,0.39111 0.40625,0.61523 l 2.347656,6.12695 c 0.157191,0.4109 0.186922,0.82666 0.128906,1.23438 -0.08108,0.45938 -0.226476,0.85869 -0.439453,1.19727 -0.236039,0.39023 -0.53889,0.72055 -0.892578,1.02734 -0.391022,0.32109 -0.772702,0.55356 -1.183593,0.71094 l -6.201172,2.37304 c -0.821787,0.31472 -1.655315,0.37849 -2.513672,0.15039 l 0.01563,0.0371 c -0.263872,-0.2416 -0.467621,-0.55004 -0.625,-0.96093 l -2.347657,-6.125 c -0.15753,-0.4109 -0.225602,-0.81406 -0.144531,-1.27344 0.08105,-0.45938 0.229427,-0.85757 0.451172,-1.28516 0.236043,-0.39023 0.523044,-0.75701 0.914063,-1.07812 0.353669,-0.30679 0.772455,-0.5549 1.220703,-0.72657 l 6.201172,-2.37304 c 0.298832,-0.11445 0.664496,-0.16861 1.029297,-0.22266 0.189552,-0.008 0.377782,-0.0176 0.564453,-0.0195 z"
             transform="scale(0.26458333)" />
          <path
             id="path1018"
             style="font-style:normal;font-variant:normal;font-weight:normal;font-stretch:normal;font-size:10.5833px;font-family:'Omega Flight 3D';-inkscape-font-specification:'Omega Flight 3D, Normal';font-variant-ligatures:normal;font-variant-caps:normal;font-variant-numeric:normal;font-variant-east-asian:normal;stroke-width:0.999999"
             d="m 79.175781,130.26172 c -0.542827,0.0366 -1.071039,0.11088 -1.55664,0.29687 l -6.201172,2.375 c -0.522955,0.2003 -0.964203,0.49859 -1.392578,0.83399 -0.414067,0.37275 -0.762398,0.8042 -1.021485,1.24609 -0.259101,0.4419 -0.453399,0.94443 -0.505859,1.47852 -0.05246,0.53408 0.0074,1.02611 0.193359,1.51172 l 2.347656,6.125 c 0.200289,0.52295 0.483744,0.92886 0.865235,1.2539 0.395803,0.36241 0.875291,0.60792 1.363281,0.76367 0.48799,0.15576 1.035298,0.24565 1.578125,0.20899 0.557133,7.5e-4 1.070792,-0.11027 1.59375,-0.31055 l 6.201172,-2.375 c 0.485601,-0.18598 0.943352,-0.44757 1.357422,-0.82031 0.428375,-0.3354 0.77607,-0.76904 1.035156,-1.21094 0.259098,-0.44189 0.451447,-0.94248 0.503906,-1.47656 0.06675,-0.49673 0.04598,-1.00244 -0.154297,-1.52539 l -2.347656,-6.12695 c -0.185983,-0.48561 -0.506544,-0.87587 -0.902344,-1.23829 -0.395799,-0.3624 -0.875291,-0.60791 -1.363281,-0.76367 -0.48799,-0.15575 -1.036617,-0.24531 -1.59375,-0.24609 z m 1.78711,1.26953 c 0.186669,-0.002 0.370793,0.002 0.548828,0.0195 l -0.03711,0.0156 c 0.197896,0.18121 0.396087,0.36112 0.556641,0.55664 0.160543,0.19551 0.320417,0.39111 0.40625,0.61523 l 2.347656,6.12695 c 0.157191,0.4109 0.186922,0.82666 0.128906,1.23438 -0.08108,0.45938 -0.226476,0.85869 -0.439453,1.19727 -0.236039,0.39023 -0.53889,0.72055 -0.892578,1.02734 -0.391022,0.32109 -0.772702,0.55356 -1.183593,0.71094 l -6.201172,2.37304 c -0.821787,0.31472 -1.655315,0.37849 -2.513672,0.15039 l 0.01563,0.0371 c -0.263872,-0.2416 -0.467621,-0.55004 -0.625,-0.96093 l -2.347657,-6.125 c -0.15753,-0.4109 -0.225602,-0.81406 -0.144531,-1.27344 0.08105,-0.45938 0.229427,-0.85757 0.451172,-1.28516 0.236043,-0.39023 0.523044,-0.75701 0.914063,-1.07812 0.353669,-0.30679 0.772455,-0.5549 1.220703,-0.72657 l 6.201172,-2.37304 c 0.298832,-0.11445 0.664496,-0.16861 1.029297,-0.22266 0.189552,-0.008 0.377783,-0.0176 0.564453,-0.0195 z"
             transform="scale(0.26458333)" />
        </g>
        <path
           style="font-style:normal;font-variant:normal;font-weight:normal;font-stretch:normal;font-size:10.5833px;font-family:'Omega Flight 3D';-inkscape-font-specification:'Omega Flight 3D, Normal';font-variant-ligatures:normal;font-variant-caps:normal;font-variant-numeric:normal;font-variant-east-asian:normal;fill:#ffffff;stroke-width:0.264583"
           d="m 24.133154,31.61557 4.623981,-1.38164 c 0.709822,-0.212093 1.328137,-0.175932 1.851916,0.09834 0.523779,0.274276 0.903371,0.768365 1.121524,1.498467 l 1.245294,4.167667 -1.521046,0.454487 -1.211965,-4.056124 c -0.03939,-0.131824 -0.116309,-0.241388 -0.21351,-0.344892 -0.0972,-0.103504 -0.218763,-0.177638 -0.344405,-0.228462 -0.125642,-0.05082 -0.268535,-0.08545 -0.415509,-0.09676 -0.143944,-0.0012 -0.284857,0.0078 -0.416681,0.04718 l -2.768305,0.827166 1.496777,5.009313 -1.521047,0.454487 z"
           id="path154"
           inkscape:label="n"
           sodipodi:insensitive="true" />
        <path
           style="font-style:normal;font-variant:normal;font-weight:normal;font-stretch:normal;font-size:10.5833px;font-family:'Omega Flight 3D';-inkscape-font-specification:'Omega Flight 3D, Normal';font-variant-ligatures:normal;font-variant-caps:normal;font-variant-numeric:normal;font-variant-east-asian:normal;fill:#ffffff;stroke-width:0.264583"
           d="m 34.685896,31.229386 c -0.03014,-0.134241 -0.02698,-0.265111 0.0072,-0.402936 0.03414,-0.137826 0.103888,-0.261954 0.19893,-0.370066 0.08471,-0.105794 0.192401,-0.205899 0.31505,-0.28767 0.124967,-0.07144 0.252253,-0.132562 0.39682,-0.16502 l 4.213105,-0.945914 -0.329215,-1.466326 -4.553871,1.022422 c -0.722837,0.162289 -1.254737,0.498645 -1.577369,0.994105 -0.322631,0.49546 -0.401643,1.109772 -0.234717,1.853261 l 0.431226,1.92068 c 0.166926,0.743489 0.503282,1.27539 1.00675,1.585376 0.503468,0.309987 1.125787,0.376354 1.848624,0.214065 l 4.55387,-1.022422 -0.901864,-4.016907 -1.548936,0.347763 0.570331,2.540254 -2.664169,0.598152 c -0.144568,0.03246 -0.283446,0.04194 -0.429279,0.02045 -0.143515,-0.01117 -0.283658,-0.05563 -0.405468,-0.115054 -0.132136,-0.05711 -0.248256,-0.139504 -0.338035,-0.249508 -0.08746,-0.09968 -0.146259,-0.216638 -0.178717,-0.361205 z"
           id="path1058"
           inkscape:label="g"
           sodipodi:insensitive="true" />
        <g
           id="g140"
           inkscape:label="r"
           sodipodi:insensitive="true">
          <path
             id="path105"
             style="font-style:normal;font-variant:normal;font-weight:normal;font-stretch:normal;font-size:10.5833px;font-family:'Omega Flight 3D';-inkscape-font-specification:'Omega Flight 3D, Normal';font-variant-ligatures:normal;font-variant-caps:normal;font-variant-numeric:normal;font-variant-east-asian:normal;display:inline;fill:#ffffff;stroke-width:0.999999"
             d="m 174.55664,100.21875 c -0.5885,-0.008 -1.20943,0.0395 -1.86133,0.14258 l -17.58203,2.78125 3.97266,25.12695 5.88672,-0.93164 -1.47461,-9.32422 11.89257,-1.8789 c 0.7424,0.0851 1.26695,0.32513 1.53321,0.72851 0.22673,0.40962 0.4012,0.74643 0.45117,1.0625 l 1.15039,7.26953 5.96484,-0.9414 -1.16796,-7.38868 c -0.0999,-0.63214 -0.22726,-1.17945 -0.375,-1.60156 -0.14147,-0.3826 -0.32129,-0.75969 -0.5293,-1.05078 -0.20799,-0.2911 -0.45008,-0.5348 -0.72461,-0.73437 -0.27455,-0.19956 -0.54891,-0.39915 -0.83594,-0.67774 L 180.44531,112.5 c 0.25985,-0.40555 0.5195,-0.81013 0.7461,-1.16992 0.18708,-0.35354 0.36295,-0.78657 0.49804,-1.21289 0.0956,-0.42008 0.18342,-0.88059 0.1875,-1.36719 0.004,-0.4866 -0.009,-1.09006 -0.11523,-1.76172 -0.18115,-1.14576 -0.50863,-2.18769 -0.97461,-3.08594 -0.46599,-0.89824 -1.11089,-1.64659 -1.85547,-2.25781 -0.74458,-0.61122 -1.65488,-0.99349 -2.70508,-1.23242 -0.52509,-0.11947 -1.08142,-0.18516 -1.66992,-0.19336 z m 0.52539,7.29883 c 0.025,0.15806 0.0832,0.27058 0.0957,0.34961 0.0125,0.079 0.0637,0.15144 0.0762,0.23047 0.0375,0.23705 0.008,0.56474 -0.0937,0.94531 -0.0956,0.42007 -0.33923,0.66132 -0.76758,0.76953 l -10.1543,1.60547 -0.33789,-2.13281 z"
             transform="scale(0.26458333)" />
          <path
             id="path109"
             style="font-style:normal;font-variant:normal;font-weight:normal;font-stretch:normal;font-size:10.5833px;font-family:'Omega Flight 3D';-inkscape-font-specification:'Omega Flight 3D, Normal';font-variant-ligatures:normal;font-variant-caps:normal;font-variant-numeric:normal;font-variant-east-asian:normal;stroke-width:0.999999"
             d="m 174.06836,105.97656 c -0.19548,-0.0197 -0.40748,-0.016 -0.64453,0.0215 l -11.53711,1.82226 0.71875,4.54492 11.9707,-1.89257 c 0.34934,-0.0957 0.60825,-0.25761 0.82031,-0.45313 0.17258,-0.18927 0.29983,-0.41217 0.38086,-0.66797 0.081,-0.25579 0.12102,-0.50671 0.12305,-0.75 0.002,-0.24332 0.0113,-0.44549 -0.0137,-0.60351 -0.025,-0.15804 -0.0965,-0.35079 -0.17969,-0.6211 -0.077,-0.23081 -0.19945,-0.49458 -0.35547,-0.71289 -0.19551,-0.21205 -0.43047,-0.41844 -0.73828,-0.57226 -0.17053,-0.054 -0.34944,-0.0955 -0.54492,-0.11524 z m 1.01367,1.54102 c 0.025,0.15806 0.0832,0.27058 0.0957,0.34961 0.0125,0.079 0.0637,0.15144 0.0762,0.23047 0.0375,0.23705 0.008,0.56474 -0.0937,0.94531 -0.0956,0.42007 -0.33923,0.66132 -0.76758,0.76953 l -10.1543,1.60547 -0.33789,-2.13281 z"
             transform="scale(0.26458333)" />
        </g>
        <g
           id="g169"
           inkscape:label="a"
           sodipodi:insensitive="true">
          <path
             id="path144"
             style="font-style:normal;font-variant:normal;font-weight:normal;font-stretch:normal;font-size:10.5833px;font-family:'Omega Flight 3D';-inkscape-font-specification:'Omega Flight 3D, Normal';font-variant-ligatures:normal;font-variant-caps:normal;font-variant-numeric:normal;font-variant-east-asian:normal;display:inline;fill:#ffffff;stroke-width:0.999999"
             d="m 204.38867,96.587891 -6.05078,0.599609 -9.71289,26.52539 6.64844,-0.6582 1.86718,-5.08789 12.57813,-1.2461 2.78906,4.62891 6.60742,-0.6543 z m -1.1289,10.925779 2.05859,3.33203 -3.38281,0.33594 z"
             transform="scale(0.26458333)" />
          <path
             id="path148"
             style="font-style:normal;font-variant:normal;font-weight:normal;font-stretch:normal;font-size:10.5833px;font-family:'Omega Flight 3D';-inkscape-font-specification:'Omega Flight 3D, Normal';font-variant-ligatures:normal;font-variant-caps:normal;font-variant-numeric:normal;font-variant-east-asian:normal;stroke-width:0.999999"
             d="m 202.14453,104.36719 -2.76953,7.75 7.08594,-0.70117 z m 1.11524,3.14648 2.05859,3.33203 -3.38281,0.33594 z"
             transform="scale(0.26458333)" />
        </g>
        <path
           style="font-style:normal;font-variant:normal;font-weight:normal;font-stretch:normal;font-size:10.5833px;font-family:'Omega Flight 3D';-inkscape-font-specification:'Omega Flight 3D, Normal';font-variant-ligatures:normal;font-variant-caps:normal;font-variant-numeric:normal;font-variant-east-asian:normal;fill:#ffffff;stroke-width:0.264583"
           d="m 61.357734,31.843257 -0.226205,-5.223254 2.484746,-0.107607 -0.06502,-1.501422 -6.555501,0.283902 0.06502,1.501421 2.484747,-0.107608 0.226205,5.223254 z"
           id="path1062"
           inkscape:label="t"
           sodipodi:insensitive="true" />
        <path
           style="font-style:normal;font-variant:normal;font-weight:normal;font-stretch:normal;font-size:10.5833px;font-family:'Omega Flight 3D';-inkscape-font-specification:'Omega Flight 3D, Normal';font-variant-ligatures:normal;font-variant-caps:normal;font-variant-numeric:normal;font-variant-east-asian:normal;fill:#ffffff;stroke-width:0.264583"
           d="m 69.492029,30.251831 -1.735475,-0.02542 c -0.148151,-0.0022 -0.285409,-0.02535 -0.422202,-0.08028 -0.136948,-0.04434 -0.262848,-0.12028 -0.36743,-0.206487 -0.104581,-0.08621 -0.19827,-0.193425 -0.259903,-0.321341 -0.06179,-0.117334 -0.09167,-0.244785 -0.0895,-0.392936 l 0.06201,-4.232865 -1.587325,-0.02325 -0.06372,4.349269 c -0.01116,0.761916 0.191799,1.357618 0.609039,1.776524 0.41724,0.418905 1.006896,0.628648 1.747647,0.639501 l 2.433898,0.03566 c 0.740751,0.01085 1.325716,-0.181682 1.755049,-0.588185 0.429333,-0.406503 0.66024,-0.995848 0.671403,-1.757764 l 0.06372,-4.34927 -1.587325,-0.02326 -0.06201,4.232866 c -0.0022,0.14815 -0.04636,0.274516 -0.111558,0.389989 -0.06535,0.126056 -0.162144,0.230483 -0.269205,0.313589 -0.107062,0.08311 -0.235134,0.155322 -0.373322,0.195635 -0.138343,0.0509 -0.276221,0.07005 -0.413789,0.06803 z"
           id="path1066"
           inkscape:label="u"
           sodipodi:insensitive="true" />
        <path
           style="font-style:normal;font-variant:normal;font-weight:normal;font-stretch:normal;font-size:10.5833px;font-family:'Omega Flight 3D';-inkscape-font-specification:'Omega Flight 3D, Normal';font-variant-ligatures:normal;font-variant-caps:normal;font-variant-numeric:normal;font-variant-east-asian:normal;fill:#ffffff;stroke-width:0.264583"
           d="m 73.344736,31.865461 0.459329,-6.715288 1.573236,0.107611 -0.356053,5.205404 3.896134,0.266497 -0.103277,1.509884 z"
           id="path167"
           inkscape:label="l"
           sodipodi:insensitive="true" />
        <g
           id="g199"
           inkscape:label="s"
           sodipodi:insensitive="true">
          <path
             id="path174"
             style="font-style:normal;font-variant:normal;font-weight:normal;font-stretch:normal;font-size:10.5833px;font-family:'Omega Flight 3D';-inkscape-font-specification:'Omega Flight 3D, Normal';font-variant-ligatures:normal;font-variant-caps:normal;font-variant-numeric:normal;font-variant-east-asian:normal;fill:#ffffff;stroke-width:0.999999"
             d="m 317.23828,98.353516 -15.20312,23.808594 6.63281,0.78906 2.92187,-4.5664 12.55078,1.49609 1.72657,5.11914 6.59375,0.78516 -9.18555,-26.712894 z m 2.58008,11.142574 1.29102,3.69922 -3.375,-0.40234 z"
             transform="scale(0.26458333)" />
          <path
             id="path178"
             style="font-style:normal;font-variant:normal;font-weight:normal;font-stretch:normal;font-size:10.5833px;font-family:'Omega Flight 3D';-inkscape-font-specification:'Omega Flight 3D, Normal';font-variant-ligatures:normal;font-variant-caps:normal;font-variant-numeric:normal;font-variant-east-asian:normal;stroke-width:0.999999"
             d="m 319.4082,106.18359 -4.37695,6.97266 7.07031,0.8418 z m 0.41016,3.3125 1.29102,3.69922 -3.375,-0.40234 z"
             transform="scale(0.26458333)" />
        </g>
        <path
           style="font-style:normal;font-variant:normal;font-weight:normal;font-stretch:normal;font-size:10.5833px;font-family:'Omega Flight 3D';-inkscape-font-specification:'Omega Flight 3D, Normal';font-variant-ligatures:normal;font-variant-caps:normal;font-variant-numeric:normal;font-variant-east-asian:normal;fill:#ffffff;stroke-width:0.264583"
           d="m 91.287491,33.917106 0.902246,-5.149709 2.449761,0.429206 0.25935,-1.480281 -6.463198,-1.132373 -0.25935,1.48028 2.44976,0.429206 -0.902246,5.14971 z"
           id="path71"
           inkscape:label="t"
           sodipodi:insensitive="true" />
        <path
           style="font-style:normal;font-variant:normal;font-weight:normal;font-stretch:normal;font-size:10.5833px;font-family:'Omega Flight 3D';-inkscape-font-specification:'Omega Flight 3D, Normal';font-variant-ligatures:normal;font-variant-caps:normal;font-variant-numeric:normal;font-variant-east-asian:normal;fill:#ffffff;stroke-width:0.264583"
           d="m 94.857959,34.606152 1.416775,-6.580184 1.531237,0.32969 -1.416774,6.580184 z"
           id="path173"
           inkscape:label="i"
           sodipodi:insensitive="true" />
        <g
           id="g228"
           inkscape:label="o"
           sodipodi:insensitive="true">
          <path
             id="path203"
             style="font-style:normal;font-variant:normal;font-weight:normal;font-stretch:normal;font-size:10.5833px;font-family:'Omega Flight 3D';-inkscape-font-specification:'Omega Flight 3D, Normal';font-variant-ligatures:normal;font-variant-caps:normal;font-variant-numeric:normal;font-variant-east-asian:normal;fill:#ffffff;stroke-width:0.999999"
             d="m 380.81836,110.03125 c -1.52631,-0.0129 -2.90602,0.32944 -4.11914,1.02148 -1.94101,1.10727 -3.26956,3.03492 -3.99414,5.82227 l -1.8711,7.20117 c -0.72458,2.78735 -0.51541,5.156 0.64063,7.06836 1.15604,1.91236 3.13382,3.21156 5.84375,3.91602 l 8.98047,2.33398 c 2.70992,0.70446 5.03164,0.52329 6.97265,-0.58398 1.94102,-1.10727 3.31645,-3.06422 4.04102,-5.85157 l 1.87305,-7.20117 c 0.72457,-2.78735 0.46463,-5.1267 -0.69141,-7.03906 -1.15604,-1.91236 -3.08496,-3.24086 -5.79492,-3.94531 l -8.98047,-2.33399 c -1.01622,-0.26417 -1.98461,-0.40044 -2.90039,-0.4082 z m 2.75976,8.12109 c 0.23751,0.0204 0.47477,0.0607 0.70704,0.1211 l 6.42773,1.66992 c 0.3097,0.0805 0.6364,0.24997 0.96484,0.41797 0.31824,0.20671 0.63677,0.41308 0.90625,0.64844 l -0.0371,-0.01 c 0.0556,0.26247 0.10805,0.52495 0.12695,0.77734 0.017,0.25241 0.0351,0.50404 -0.0254,0.73633 l -1.65039,6.34961 c -0.11071,0.42585 -0.32711,0.78199 -0.61133,1.08008 -0.3329,0.32675 -0.68467,0.56696 -1.05469,0.71875 -0.41888,0.1804 -0.85617,0.27226 -1.32226,0.31641 -0.50484,0.0341 -0.95108,0.001 -1.37696,-0.10938 l -6.42578,-1.66992 c -0.85168,-0.2214 -1.56487,-0.65543 -2.13086,-1.33984 l -0.0117,0.0391 c -0.0745,-0.34996 -0.0619,-0.71869 0.0488,-1.14453 l 1.65039,-6.34961 c 0.1107,-0.42585 0.29007,-0.7924 0.62305,-1.11914 0.3329,-0.32676 0.68434,-0.56602 1.11328,-0.78516 0.41885,-0.18043 0.8663,-0.31169 1.37109,-0.3457 0.23307,-0.0221 0.46953,-0.0224 0.70703,-0.002 z"
             transform="scale(0.26458333)" />
          <path
             id="path207"
             style="font-style:normal;font-variant:normal;font-weight:normal;font-stretch:normal;font-size:10.5833px;font-family:'Omega Flight 3D';-inkscape-font-specification:'Omega Flight 3D, Normal';font-variant-ligatures:normal;font-variant-caps:normal;font-variant-numeric:normal;font-variant-east-asian:normal;stroke-width:0.999999"
             d="m 381.94922,116.13672 c -0.55359,0.0628 -1.089,0.21279 -1.55664,0.42187 -0.46764,0.20907 -0.91653,0.50598 -1.26953,0.91016 -0.35301,0.40418 -0.58993,0.83853 -0.72071,1.3418 L 376.75,125.1582 c -0.14075,0.54199 -0.14502,1.03721 -0.0234,1.52344 0.11152,0.52494 0.35939,1.00372 0.66602,1.41406 0.30662,0.41035 0.70103,0.8022 1.16406,1.08789 0.45294,0.32439 0.93653,0.53098 1.47852,0.67188 l 6.42578,1.67187 c 0.50328,0.13093 1.02649,0.18384 1.58008,0.1211 0.54353,-0.024 1.07923,-0.17373 1.54687,-0.38282 0.46764,-0.20906 0.91652,-0.50598 1.26953,-0.91015 0.34299,-0.36547 0.61879,-0.79005 0.75977,-1.33203 l 1.65039,-6.34961 c 0.13039,-0.50328 0.0959,-1.00631 -0.0156,-1.53125 -0.11149,-0.52494 -0.35949,-1.00372 -0.66601,-1.41406 -0.30664,-0.41035 -0.69937,-0.80256 -1.15235,-1.12696 -0.46299,-0.28567 -0.93617,-0.53126 -1.43945,-0.66211 l -6.42773,-1.67187 c -0.54199,-0.14102 -1.07366,-0.15505 -1.61719,-0.13086 z m 1.6289,2.01562 c 0.23751,0.0204 0.47477,0.0607 0.70704,0.1211 l 6.42773,1.66992 c 0.3097,0.0805 0.6364,0.24997 0.96484,0.41797 0.31824,0.20671 0.63677,0.41308 0.90625,0.64844 l -0.0371,-0.01 c 0.0556,0.26247 0.10805,0.52495 0.12695,0.77734 0.017,0.25241 0.0351,0.50404 -0.0254,0.73633 l -1.65039,6.34961 c -0.11071,0.42585 -0.32711,0.78199 -0.61133,1.08008 -0.3329,0.32675 -0.68467,0.56696 -1.05469,0.71875 -0.41888,0.1804 -0.85617,0.27226 -1.32226,0.31641 -0.50484,0.0341 -0.95108,0.001 -1.37696,-0.10938 l -6.42578,-1.66992 c -0.85168,-0.2214 -1.56487,-0.65543 -2.13086,-1.33984 l -0.0117,0.0391 c -0.0745,-0.34996 -0.0619,-0.71869 0.0488,-1.14453 l 1.65039,-6.34961 c 0.1107,-0.42585 0.29007,-0.7924 0.62305,-1.11914 0.3329,-0.32676 0.68434,-0.56602 1.11328,-0.78516 0.41885,-0.18043 0.8663,-0.31169 1.37109,-0.3457 0.23307,-0.0221 0.46953,-0.0224 0.70703,-0.002 z"
             transform="scale(0.26458333)" />
        </g>
        <path
           style="font-style:normal;font-variant:normal;font-weight:normal;font-stretch:normal;font-size:10.5833px;font-family:'Omega Flight 3D';-inkscape-font-specification:'Omega Flight 3D, Normal';font-variant-ligatures:normal;font-variant-caps:normal;font-variant-numeric:normal;font-variant-east-asian:normal;fill:#ffffff;stroke-width:0.264583"
           d="m 107.75668,30.878556 4.58054,1.519467 c 0.70315,0.233252 1.18898,0.617422 1.46083,1.142465 0.27185,0.525044 0.29953,1.147497 0.0596,1.87074 l -1.36952,4.128513 -1.50676,-0.499825 1.33287,-4.018018 c 0.0433,-0.130585 0.0431,-0.264455 0.0228,-0.404988 -0.0203,-0.140534 -0.0774,-0.270973 -0.15116,-0.384655 -0.0738,-0.113682 -0.17101,-0.223984 -0.28493,-0.317527 -0.11726,-0.0835 -0.23785,-0.156952 -0.36844,-0.20027 l -2.74229,-0.909681 -1.64609,4.962251 -1.50676,-0.499825 z"
           id="path177"
           sodipodi:insensitive="true"
           inkscape:label="n" />
        <path
           style="font-style:normal;font-variant:normal;font-weight:normal;font-stretch:normal;font-size:10.5833px;font-family:'Omega Flight 3D';-inkscape-font-specification:'Omega Flight 3D, Normal';font-variant-ligatures:normal;font-variant-caps:normal;font-variant-numeric:normal;font-variant-east-asian:normal;fill:#ffffff;stroke-width:0.264583"
           d="m 119.39889,37.852674 -2.33209,-0.951749 c -0.11758,-0.04799 -0.20177,-0.09378 -0.25437,-0.160964 -0.0526,-0.06719 -0.0856,-0.126377 -0.10079,-0.201165 -0.0152,-0.07479 -0.0206,-0.145577 -0.006,-0.208368 0.004,-0.06679 0.0244,-0.115784 0.0404,-0.154979 0.016,-0.03919 0.036,-0.08819 0.0698,-0.142982 0.0338,-0.05479 0.0734,-0.09579 0.13657,-0.138585 0.0632,-0.0428 0.12818,-0.062 0.22257,-0.0692 0.0846,-0.0112 0.19057,0.0092 0.30815,0.05718 l 4.25264,1.735544 0.56785,-1.391417 -4.28203,-1.74754 c -0.32336,-0.131965 -0.62752,-0.198941 -0.91248,-0.200928 -0.28495,-0.002 -0.54271,0.04142 -0.77727,0.140015 -0.23856,0.108395 -0.44992,0.262181 -0.62429,0.465358 -0.18416,0.199179 -0.33133,0.447748 -0.4473,0.731911 -0.08,0.195974 -0.13855,0.423542 -0.16774,0.663107 -0.0332,0.249364 -0.0192,0.495127 0.0656,0.735487 0.071,0.246159 0.203,0.482917 0.40977,0.704475 0.20678,0.221557 0.50615,0.412314 0.8981,0.572272 l 2.33209,0.95175 c 0.10778,0.04399 0.18797,0.09958 0.24057,0.166763 0.0526,0.06719 0.0954,0.130376 0.11059,0.205164 0.0152,0.07479 0.0148,0.13178 0.0104,0.19857 -0.0142,0.06279 -0.0244,0.115784 -0.0404,0.154979 -0.016,0.03919 -0.0458,0.08419 -0.0796,0.138982 -0.0338,0.05479 -0.0774,0.105588 -0.14057,0.148384 -0.0632,0.0428 -0.12818,0.062 -0.21277,0.0732 -0.0944,0.0072 -0.18657,-0.01899 -0.30415,-0.06698 l -4.25264,-1.735543 -0.57185,1.401215 4.28203,1.74754 c 0.31356,0.127966 0.61372,0.204741 0.89868,0.206728 0.28496,0.002 0.54271,-0.04142 0.78127,-0.149814 0.23456,-0.0986 0.44592,-0.252382 0.63409,-0.461359 0.17436,-0.203178 0.33133,-0.447748 0.45129,-0.741709 0.08,-0.195974 0.13457,-0.413744 0.16775,-0.663108 0.0292,-0.239565 0.005,-0.489326 -0.0656,-0.735486 -0.0848,-0.24036 -0.21679,-0.477118 -0.42357,-0.698675 -0.20678,-0.221557 -0.49235,-0.418115 -0.8843,-0.578073 z"
           id="path91"
           inkscape:label="s"
           sodipodi:insensitive="true" />
        <g
           id="g101"
           inkscape:label="!"
           sodipodi:insensitive="true">
          <path
             style="font-style:normal;font-variant:normal;font-weight:normal;font-stretch:normal;font-size:10.5833px;font-family:'Omega Flight 3D';-inkscape-font-specification:'Omega Flight 3D, Normal';font-variant-ligatures:normal;font-variant-caps:normal;font-variant-numeric:normal;font-variant-east-asian:normal;fill:#ffffff;stroke-width:0.264583"
             d="m 121.418,41.582558 -0.63552,1.373509 1.42153,0.657743 0.63552,-1.373508 z"
             id="path97" />
          <path
             style="font-style:normal;font-variant:normal;font-weight:normal;font-stretch:normal;font-size:10.5833px;font-family:'Omega Flight 3D';-inkscape-font-specification:'Omega Flight 3D, Normal';font-variant-ligatures:normal;font-variant-caps:normal;font-variant-numeric:normal;font-variant-east-asian:normal;fill:#ffffff;stroke-width:0.264583"
             d="m 123.609,36.847314 -1.95546,4.226181 1.43114,0.662188 1.95545,-4.226181 z"
             id="path95" />
        </g>
      </g>
    </g>
    <g
       id="g225"
       transform="translate(0,-1.5874938)"
       inkscape:label="you win"
       sodipodi:insensitive="true">
      <g
         id="g56-5"
         transform="translate(0,-10.583334)"
         inkscape:label="you win original"
         style="display:inline">
        <path
           style="display:none;fill:none;stroke:#000000;stroke-width:0.285025px;stroke-linecap:butt;stroke-linejoin:miter;stroke-opacity:1"
           d="m 5.558243,47.636251 c 26.191757,-18.532084 94.983427,-18.532084 124.354167,0"
           id="path36-5"
           sodipodi:nodetypes="cc"
           inkscape:label="curve" />
        <text
           xml:space="preserve"
           style="font-style:normal;font-variant:normal;font-weight:normal;font-stretch:normal;font-size:10.5833px;line-height:1.25;font-family:'Omega Flight 3D';-inkscape-font-specification:'Omega Flight 3D, Normal';font-variant-ligatures:normal;font-variant-caps:normal;font-variant-numeric:normal;font-variant-east-asian:normal;fill:#000000;fill-opacity:1;stroke:none;stroke-width:0.264583"
           id="text44-1"
           inkscape:label="you win"
           transform="translate(0,-0.52916666)"><textPath
             xlink:href="#path36-5"
             id="textPath49-2"><tspan
               id="tspan42-5"
               style="font-style:normal;font-variant:normal;font-weight:normal;font-stretch:normal;font-size:10.5833px;font-family:'Omega Flight 3D';-inkscape-font-specification:'Omega Flight 3D, Normal';font-variant-ligatures:normal;font-variant-caps:normal;font-variant-numeric:normal;font-variant-east-asian:normal;stroke-width:0.264583">            YOU Win! </tspan></textPath></text>
      </g>
      <g
         id="g56-5-9"
         transform="translate(1.0137757e-7,-10.583335)"
         inkscape:label="you win overlay">
        <path
           style="display:none;fill:none;stroke:#000000;stroke-width:0.285025px;stroke-linecap:butt;stroke-linejoin:miter;stroke-opacity:1"
           d="m 5.558243,47.636251 c 26.191757,-18.532084 94.983427,-18.532084 124.354167,0"
           id="path36-5-0"
           sodipodi:nodetypes="cc"
           inkscape:label="curve" />
        <g
           aria-label="            YOU Win! "
           transform="translate(0,-0.52916666)"
           id="text44-1-8"
           style="font-style:normal;font-variant:normal;font-weight:normal;font-stretch:normal;font-size:10.5833px;line-height:1.25;font-family:'Omega Flight 3D';-inkscape-font-specification:'Omega Flight 3D, Normal';font-variant-ligatures:normal;font-variant-caps:normal;font-variant-numeric:normal;font-variant-east-asian:normal;fill:#000000;fill-opacity:1;stroke:none;stroke-width:0.264583"
           inkscape:label="you win">
          <path
             style="font-style:normal;font-variant:normal;font-weight:normal;font-stretch:normal;font-size:10.5833px;font-family:'Omega Flight 3D';-inkscape-font-specification:'Omega Flight 3D, Normal';font-variant-ligatures:normal;font-variant-caps:normal;font-variant-numeric:normal;font-variant-east-asian:normal;display:inline;fill:#ffffff;stroke-width:0.264583"
             d="m 42.305241,30.609637 -0.251047,-2.037754 -1.565079,0.192815 0.256223,2.07977 c 0.02588,0.210077 0.08586,0.437281 0.177355,0.660602 0.09279,0.233825 0.235505,0.440172 0.42686,0.608537 0.182146,0.180163 0.423432,0.32105 0.712062,0.413451 0.28863,0.0924 0.643022,0.11272 1.063178,0.06096 l 3.035623,-0.373983 0.06729,0.546202 c 0.0052,0.04202 0.0011,0.09583 -0.0016,0.160147 -0.0027,0.06432 -0.01598,0.129928 -0.03973,0.196834 -0.03425,0.0682 -0.08159,0.116685 -0.149945,0.167759 -0.07885,0.05237 -0.172096,0.07452 -0.298143,0.09005 l -4.558687,0.561622 0.185051,1.502056 4.569191,-0.562916 c 0.336124,-0.04141 0.63556,-0.120953 0.885217,-0.258343 0.249657,-0.137391 0.453415,-0.301116 0.619192,-0.51348 0.156567,-0.200565 0.265943,-0.437969 0.328126,-0.712213 0.06348,-0.26374 0.08106,-0.553815 0.04224,-0.868931 l -0.565504,-4.590199 -1.575583,0.194109 0.318339,2.583956 -3.035624,0.373983 c -0.126046,0.01553 -0.221875,0.01667 -0.300579,-0.01629 -0.08921,-0.03166 -0.146903,-0.06721 -0.196683,-0.125055 -0.04978,-0.05785 -0.08906,-0.116988 -0.107324,-0.178718 -0.02877,-0.06044 -0.03524,-0.112954 -0.04042,-0.15497 z"
             id="path129"
             inkscape:label="y" />
          <g
             id="g160"
             inkscape:label="o">
            <path
               id="path133"
               style="font-style:normal;font-variant:normal;font-weight:normal;font-stretch:normal;font-size:10.5833px;font-family:'Omega Flight 3D';-inkscape-font-specification:'Omega Flight 3D, Normal';font-variant-ligatures:normal;font-variant-caps:normal;font-variant-numeric:normal;font-variant-east-asian:normal;display:inline;fill:#ffffff;stroke-width:0.999999"
               d="m 203.42578,61.595703 c -0.33218,-4.22e-4 -0.67244,0.01129 -1.02148,0.03711 l -9.25391,0.685547 c -2.79236,0.206514 -4.96669,1.169994 -6.44727,2.84375 -1.48057,1.673757 -2.11671,3.926682 -1.90429,6.798829 l 0.54883,7.417968 c 0.21241,2.872146 1.17602,5.048592 2.88672,6.486328 1.7107,1.437733 4.0006,2.028783 6.79296,1.822266 l 9.25391,-0.683594 c 2.79236,-0.206513 4.92958,-1.127021 6.41016,-2.800781 1.48057,-1.673756 2.15382,-3.969651 1.9414,-6.841797 l -0.54883,-7.419922 c -0.21241,-2.872146 -1.21313,-5.00367 -2.92382,-6.441406 -1.49686,-1.258019 -3.40908,-1.901344 -5.73438,-1.904298 z m -0.5918,7.466797 c 0.31913,-0.02362 0.68392,0.02882 1.04883,0.08203 0.36787,0.09313 0.73547,0.186316 1.06641,0.322266 l -0.0391,0.0039 c 0.13738,0.230495 0.27362,0.459898 0.37109,0.693359 0.0975,0.233443 0.19513,0.467674 0.21289,0.707032 l 0.48438,6.541015 c 0.0324,0.4388 -0.0576,0.846946 -0.23047,1.220703 -0.20985,0.41661 -0.46616,0.75659 -0.76758,1.019532 -0.33837,0.30579 -0.72144,0.534562 -1.14844,0.726562 -0.46689,0.194986 -0.90104,0.30734 -1.33984,0.339844 l -6.6211,0.490234 c -0.8776,0.06491 -1.69282,-0.116556 -2.44921,-0.582031 l 0.002,0.04102 c -0.18316,-0.307325 -0.28976,-0.66081 -0.32227,-1.09961 l -0.48242,-6.542968 c -0.0324,-0.4388 0.0167,-0.843156 0.22656,-1.259766 0.20985,-0.416614 0.46535,-0.755887 0.80078,-1.101563 0.33837,-0.305786 0.72062,-0.574583 1.1875,-0.769531 0.427,-0.192038 0.90022,-0.308222 1.37891,-0.34375 z"
               transform="matrix(0.26458333,0,0,0.26458333,-1.0137757e-7,11.112502)" />
            <path
               id="path137"
               style="font-style:normal;font-variant:normal;font-weight:normal;font-stretch:normal;font-size:10.5833px;font-family:'Omega Flight 3D';-inkscape-font-specification:'Omega Flight 3D, Normal';font-variant-ligatures:normal;font-variant-caps:normal;font-variant-numeric:normal;font-variant-east-asian:normal;stroke-width:0.999999"
               d="m 201.50781,67.394531 -6.62304,0.490235 c -0.55848,0.04129 -1.06744,0.200503 -1.57422,0.398437 -0.50383,0.237808 -0.96259,0.551767 -1.33789,0.900391 -0.37531,0.348631 -0.70426,0.773135 -0.90821,1.269531 -0.20394,0.496392 -0.28836,0.985325 -0.25,1.503906 l 0.48438,6.541016 c 0.0413,0.558474 0.19696,1.028119 0.46875,1.449219 0.27475,0.460989 0.66343,0.833421 1.08594,1.123046 0.42251,0.289645 0.92079,0.533088 1.45117,0.654297 0.53333,0.16111 1.05871,0.20342 1.61719,0.16211 l 6.62109,-0.490235 c 0.51858,-0.03834 1.03133,-0.156723 1.53515,-0.394531 0.50679,-0.197915 0.96454,-0.512704 1.33985,-0.861328 0.37531,-0.348631 0.70426,-0.773139 0.9082,-1.269531 0.20689,-0.456503 0.33233,-0.947385 0.29102,-1.50586 l -0.48438,-6.541015 c -0.0384,-0.518582 -0.23308,-0.986277 -0.50781,-1.447266 -0.27475,-0.460989 -0.66342,-0.833422 -1.08594,-1.123047 -0.42251,-0.289625 -0.92174,-0.534229 -1.45508,-0.695312 -0.53038,-0.12121 -1.05758,-0.202425 -1.57617,-0.164063 z m 1.32617,1.667969 c 0.31913,-0.02362 0.68392,0.02882 1.04883,0.08203 0.36787,0.09313 0.73547,0.186316 1.06641,0.322266 l -0.0391,0.0039 c 0.13738,0.230495 0.27362,0.459898 0.37109,0.693359 0.0975,0.233443 0.19513,0.467674 0.21289,0.707032 l 0.48438,6.541015 c 0.0324,0.4388 -0.0576,0.846946 -0.23047,1.220703 -0.20985,0.41661 -0.46616,0.75659 -0.76758,1.019532 -0.33837,0.30579 -0.72144,0.534562 -1.14844,0.726562 -0.46689,0.194986 -0.90104,0.30734 -1.33984,0.339844 l -6.6211,0.490234 c -0.8776,0.06491 -1.69282,-0.116556 -2.44921,-0.582031 l 0.002,0.04102 c -0.18316,-0.307325 -0.28976,-0.66081 -0.32227,-1.09961 l -0.48242,-6.542968 c -0.0324,-0.4388 0.0167,-0.843156 0.22656,-1.259766 0.20985,-0.416614 0.46535,-0.755887 0.80078,-1.101563 0.33837,-0.305786 0.72062,-0.574583 1.1875,-0.769531 0.427,-0.192038 0.90022,-0.308222 1.37891,-0.34375 z"
               transform="matrix(0.26458333,0,0,0.26458333,-1.0137757e-7,11.112502)" />
          </g>
          <path
             style="font-style:normal;font-variant:normal;font-weight:normal;font-stretch:normal;font-size:10.5833px;font-family:'Omega Flight 3D';-inkscape-font-specification:'Omega Flight 3D, Normal';font-variant-ligatures:normal;font-variant-caps:normal;font-variant-numeric:normal;font-variant-east-asian:normal;fill:#ffffff;stroke-width:0.264583"
             d="m 62.021552,32.255224 -1.735001,0.04787 c -0.14811,0.0041 -0.286224,-0.01328 -0.425214,-0.06238 -0.138699,-0.03852 -0.267693,-0.109074 -0.375821,-0.190789 -0.108128,-0.08172 -0.206261,-0.18488 -0.273239,-0.31008 -0.06669,-0.114621 -0.101928,-0.240696 -0.106015,-0.388806 l -0.116764,-4.231709 -1.586891,0.04379 0.119976,4.348082 c 0.02102,0.761707 0.24895,1.348308 0.683505,1.749223 0.434556,0.400916 1.032541,0.585575 1.77309,0.565141 l 2.433233,-0.06714 c 0.740549,-0.02043 1.316863,-0.237495 1.728649,-0.661763 0.411787,-0.424268 0.617604,-1.022837 0.596587,-1.784545 l -0.119976,-4.348081 -1.586891,0.04379 0.116765,4.231709 c 0.0041,0.14811 -0.03473,0.276229 -0.09499,0.394352 -0.05997,0.128703 -0.152267,0.237123 -0.255725,0.324676 -0.103457,0.08755 -0.228365,0.165111 -0.364728,0.211223 -0.136071,0.05669 -0.273018,0.08165 -0.410548,0.08544 z"
             id="path164"
             inkscape:label="u" />
          <path
             style="font-style:normal;font-variant:normal;font-weight:normal;font-stretch:normal;font-size:10.5833px;font-family:'Omega Flight 3D';-inkscape-font-specification:'Omega Flight 3D, Normal';font-variant-ligatures:normal;font-variant-caps:normal;font-variant-numeric:normal;font-variant-east-asian:normal;fill:#ffffff;stroke-width:0.264583"
             d="m 75.68777,32.414787 -1.110395,-0.04349 0.20421,-5.213569 -1.586279,-0.06213 -0.20421,5.213569 -1.110395,-0.04349 c -0.148052,-0.0058 -0.284701,-0.03233 -0.420108,-0.0906 -0.13582,-0.04769 -0.259823,-0.126683 -0.362261,-0.215426 -0.102438,-0.08874 -0.193473,-0.198224 -0.251953,-0.327611 -0.05889,-0.118813 -0.08565,-0.246958 -0.07985,-0.39501 l 0.165688,-4.230077 -1.586279,-0.06213 -0.170244,4.346404 c -0.02982,0.761413 0.158484,1.361909 0.565337,1.79091 0.406853,0.429001 0.991193,0.653126 1.731457,0.682121 l 4.505031,0.176458 c 0.740263,0.029 1.329769,-0.149152 1.768931,-0.545015 0.439162,-0.395864 0.684437,-0.979376 0.714261,-1.74079 l 0.170244,-4.346403 -1.586278,-0.06213 -0.165688,4.230076 c -0.0058,0.148053 -0.05307,0.273298 -0.121078,0.38714 -0.06842,0.124417 -0.167741,0.226441 -0.276806,0.3069 -0.119641,0.08005 -0.249443,0.149101 -0.388577,0.186017 -0.139549,0.04749 -0.277855,0.06326 -0.404757,0.05829 z"
             id="path186"
             inkscape:label="W" />
          <path
             style="font-style:normal;font-variant:normal;font-weight:normal;font-stretch:normal;font-size:10.5833px;font-family:'Omega Flight 3D';-inkscape-font-specification:'Omega Flight 3D, Normal';font-variant-ligatures:normal;font-variant-caps:normal;font-variant-numeric:normal;font-variant-east-asian:normal;fill:#ffffff;stroke-width:0.264583"
             d="m 79.510057,34.160263 0.501492,-6.712271 1.561974,0.1167 -0.501491,6.71227 z"
             id="path120"
             inkscape:label="i" />
          <path
             style="font-style:normal;font-variant:normal;font-weight:normal;font-stretch:normal;font-size:10.5833px;font-family:'Omega Flight 3D';-inkscape-font-specification:'Omega Flight 3D, Normal';font-variant-ligatures:normal;font-variant-caps:normal;font-variant-numeric:normal;font-variant-east-asian:normal;fill:#ffffff;stroke-width:0.264583"
             d="m 82.924948,27.635653 4.799031,0.509344 c 0.736693,0.07819 1.293184,0.350107 1.670589,0.805229 0.377406,0.455123 0.53698,1.05741 0.456557,1.815152 l -0.45908,4.325442 -1.578628,-0.167547 0.446793,-4.209676 c 0.01452,-0.136815 -0.01417,-0.267573 -0.06391,-0.400565 -0.04974,-0.132992 -0.133289,-0.248287 -0.229595,-0.34365 -0.09631,-0.09536 -0.214778,-0.182437 -0.346007,-0.249579 -0.132347,-0.05662 -0.26581,-0.10271 -0.402625,-0.117231 l -2.873104,-0.304936 -0.551789,5.19895 -1.578628,-0.167548 z"
             id="path122"
             inkscape:label="n" />
          <g
             id="g204"
             inkscape:label="!">
            <path
               style="font-style:normal;font-variant:normal;font-weight:normal;font-stretch:normal;font-size:10.5833px;font-family:'Omega Flight 3D';-inkscape-font-specification:'Omega Flight 3D, Normal';font-variant-ligatures:normal;font-variant-caps:normal;font-variant-numeric:normal;font-variant-east-asian:normal;fill:#ffffff;stroke-width:0.264583"
               d="m 90.721939,33.768078 -0.20879,1.498941 1.551351,0.21609 0.20879,-1.498941 z"
               id="path200" />
            <path
               style="font-style:normal;font-variant:normal;font-weight:normal;font-stretch:normal;font-size:10.5833px;font-family:'Omega Flight 3D';-inkscape-font-specification:'Omega Flight 3D, Normal';font-variant-ligatures:normal;font-variant-caps:normal;font-variant-numeric:normal;font-variant-east-asian:normal;fill:#ffffff;stroke-width:0.264583"
               d="m 91.441753,28.600403 -0.64243,4.612124 1.561833,0.21755 0.64243,-4.612124 z"
               id="path198" />
          </g>
        </g>
      </g>
    </g>
  </g>
</svg>
