<?xml version="1.0" encoding="UTF-8" standalone="no"?>
<svg
   xmlns:osb="http://www.openswatchbook.org/uri/2009/osb"
   xmlns:dc="http://purl.org/dc/elements/1.1/"
   xmlns:cc="http://creativecommons.org/ns#"
   xmlns:rdf="http://www.w3.org/1999/02/22-rdf-syntax-ns#"
   xmlns:svg="http://www.w3.org/2000/svg"
   xmlns="http://www.w3.org/2000/svg"
   xmlns:xlink="http://www.w3.org/1999/xlink"
   xmlns:sodipodi="http://sodipodi.sourceforge.net/DTD/sodipodi-0.dtd"
   xmlns:inkscape="http://www.inkscape.org/namespaces/inkscape"
   width="234"
   height="332"
   viewBox="0 0 61.912498 87.841669"
   version="1.1"
   id="svg120"
   inkscape:version="1.0.1 (c497b03c, 2020-09-10)"
   sodipodi:docname="command_crew_complete_action_234x332_px.svg"
   inkscape:export-filename="/Users/aroberts/GIT_Repos/scifi-solitaire/spacestation/appfactory/godot/assets/cards/command/crew/2/complete_action.png"
   inkscape:export-xdpi="96"
   inkscape:export-ydpi="96">
  <defs
     id="defs114">
    <marker
       style="overflow:visible"
       id="marker2896"
       refX="0.0"
       refY="0.0"
       orient="auto"
       inkscape:stockid="Arrow1Lstart"
       inkscape:isstock="true">
      <path
         transform="scale(0.8) translate(12.5,0)"
         style="fill-rule:evenodd;stroke:#000000;stroke-width:1pt;stroke-opacity:1;fill:#2020df;fill-opacity:1"
         d="M 0.0,0.0 L 5.0,-5.0 L -12.5,0.0 L 5.0,5.0 L 0.0,0.0 z "
         id="path2894" />
    </marker>
    <marker
       style="overflow:visible"
       id="marker2856"
       refX="0.0"
       refY="0.0"
       orient="auto"
       inkscape:stockid="Arrow1Lstart"
       inkscape:isstock="true">
      <path
         transform="scale(0.8) translate(12.5,0)"
         style="fill-rule:evenodd;stroke:#000000;stroke-width:1.0pt"
         d="M 0.0,0.0 L 5.0,-5.0 L -12.5,0.0 L 5.0,5.0 L 0.0,0.0 z "
         id="path2854" />
    </marker>
    <marker
       style="overflow:visible"
       id="marker2822"
       refX="0.0"
       refY="0.0"
       orient="auto"
       inkscape:stockid="Arrow1Lstart"
       inkscape:isstock="true">
      <path
         transform="scale(0.8) translate(12.5,0)"
         style="fill-rule:evenodd;stroke:#000000;stroke-width:1.0pt"
         d="M 0.0,0.0 L 5.0,-5.0 L -12.5,0.0 L 5.0,5.0 L 0.0,0.0 z "
         id="path2820" />
    </marker>
    <marker
       style="overflow:visible"
       id="marker2794"
       refX="0.0"
       refY="0.0"
       orient="auto"
       inkscape:stockid="Arrow1Lstart"
       inkscape:isstock="true">
      <path
         transform="scale(0.8) translate(12.5,0)"
         style="fill-rule:evenodd;stroke:#000000;stroke-width:1.0pt"
         d="M 0.0,0.0 L 5.0,-5.0 L -12.5,0.0 L 5.0,5.0 L 0.0,0.0 z "
         id="path2792" />
    </marker>
    <marker
       style="overflow:visible"
       id="marker2772"
       refX="0.0"
       refY="0.0"
       orient="auto"
       inkscape:stockid="Arrow1Lstart"
       inkscape:isstock="true">
      <path
         transform="scale(0.8) translate(12.5,0)"
         style="fill-rule:evenodd;stroke:#000000;stroke-width:1.0pt"
         d="M 0.0,0.0 L 5.0,-5.0 L -12.5,0.0 L 5.0,5.0 L 0.0,0.0 z "
         id="path2770" />
    </marker>
    <marker
       style="overflow:visible"
       id="marker2756"
       refX="0.0"
       refY="0.0"
       orient="auto"
       inkscape:stockid="Arrow1Lstart"
       inkscape:isstock="true">
      <path
         transform="scale(0.8) translate(12.5,0)"
         style="fill-rule:evenodd;stroke:#000000;stroke-width:1.0pt"
         d="M 0.0,0.0 L 5.0,-5.0 L -12.5,0.0 L 5.0,5.0 L 0.0,0.0 z "
         id="path2754" />
    </marker>
    <marker
       style="overflow:visible"
       id="Arrow1Lstart"
       refX="0.0"
       refY="0.0"
       orient="auto"
       inkscape:stockid="Arrow1Lstart"
       inkscape:isstock="true">
      <path
         transform="scale(0.8) translate(12.5,0)"
         style="fill-rule:evenodd;stroke:#000000;stroke-width:1.0pt"
         d="M 0.0,0.0 L 5.0,-5.0 L -12.5,0.0 L 5.0,5.0 L 0.0,0.0 z "
         id="path2484" />
    </marker>
    <linearGradient
       id="linearGradient4767"
       osb:paint="solid">
      <stop
         style="stop-color:#000000;stop-opacity:1;"
         offset="0"
         id="stop4765" />
    </linearGradient>
    <linearGradient
       inkscape:collect="always"
       xlink:href="#linearGradient4767"
       id="linearGradient2275"
       x1="0.45800001"
       y1="291.28497"
       x2="9.702001"
       y2="291.28497"
       gradientUnits="userSpaceOnUse"
       gradientTransform="matrix(1.0478772,0,0,0.92008679,-0.03355002,22.852182)" />
    <linearGradient
       inkscape:collect="always"
       xlink:href="#linearGradient4767"
       id="linearGradient1687"
       gradientUnits="userSpaceOnUse"
       gradientTransform="matrix(1.0478772,0,0,0.92008679,-0.03355002,22.852182)"
       x1="0.45800001"
       y1="291.28497"
       x2="9.702001"
       y2="291.28497" />
    <linearGradient
       inkscape:collect="always"
       xlink:href="#linearGradient4767"
       id="linearGradient4566-6"
       x1="3.9370005"
       y1="5.8420005"
       x2="7.3660002"
       y2="5.8420005"
       gradientUnits="userSpaceOnUse" />
    <linearGradient
       inkscape:collect="always"
       xlink:href="#linearGradient4767"
       id="linearGradient1979"
       gradientUnits="userSpaceOnUse"
       gradientTransform="matrix(1.0498247,0,0,0.92179712,-0.03744473,22.360678)"
       x1="0.45800001"
       y1="291.28497"
       x2="9.702001"
       y2="291.28497" />
    <linearGradient
       inkscape:collect="always"
       xlink:href="#linearGradient4767"
       id="linearGradient2275-1"
       x1="0.45800001"
       y1="291.28497"
       x2="9.702001"
       y2="291.28497"
       gradientUnits="userSpaceOnUse"
       gradientTransform="matrix(1.0689019,0,0,0.95420529,-0.03403768,13.102516)" />
    <linearGradient
       inkscape:collect="always"
       xlink:href="#linearGradient4767"
       id="linearGradient2275-7"
       x1="0.45800001"
       y1="291.28497"
       x2="9.702001"
       y2="291.28497"
       gradientUnits="userSpaceOnUse"
       gradientTransform="matrix(1.0498247,0,0,0.92179712,-0.03744473,22.360678)" />
    <linearGradient
       inkscape:collect="always"
       xlink:href="#linearGradient4767"
       id="linearGradient2364"
       gradientUnits="userSpaceOnUse"
       gradientTransform="matrix(1.0498247,0,0,0.92179712,-0.03744473,22.360678)"
       x1="0.45800001"
       y1="291.28497"
       x2="9.702001"
       y2="291.28497" />
    <linearGradient
       inkscape:collect="always"
       xlink:href="#linearGradient4767"
       id="linearGradient2387"
       gradientUnits="userSpaceOnUse"
       gradientTransform="matrix(1.0498247,0,0,0.92179712,-0.03744473,22.360678)"
       x1="0.45800001"
       y1="291.28497"
       x2="9.702001"
       y2="291.28497" />
    <linearGradient
       inkscape:collect="always"
       xlink:href="#linearGradient4767"
       id="linearGradient2410"
       gradientUnits="userSpaceOnUse"
       gradientTransform="matrix(1.0498247,0,0,0.92179712,-0.03744473,22.360678)"
       x1="0.45800001"
       y1="291.28497"
       x2="9.702001"
       y2="291.28497" />
    <linearGradient
       inkscape:collect="always"
       xlink:href="#2020DF"
       id="linearGradient910"
       x1="-18.653126"
       y1="7.9375"
       x2="-13.096876"
       y2="7.9375"
       gradientUnits="userSpaceOnUse"
       gradientTransform="translate(1.3558639e-6,7.9375003)" />
    <linearGradient
       id="2020DF"
       osb:paint="solid"
       gradientTransform="matrix(1.1293903,0,0,1.1293949,-0.65733627,-0.739493)">
      <stop
         style="stop-color:#2020df;stop-opacity:1;"
         offset="0"
         id="stop906" />
    </linearGradient>
  </defs>
  <sodipodi:namedview
     id="base"
     pagecolor="#ffffff"
     bordercolor="#666666"
     borderopacity="1.0"
     inkscape:pageopacity="0.0"
     inkscape:pageshadow="2"
     inkscape:zoom="1.8865695"
     inkscape:cx="101.352"
     inkscape:cy="166"
     inkscape:document-units="px"
     inkscape:current-layer="g400"
     inkscape:document-rotation="0"
     showgrid="true"
     units="px"
     inkscape:window-width="1440"
     inkscape:window-height="855"
     inkscape:window-x="0"
     inkscape:window-y="23"
     inkscape:window-maximized="1">
    <inkscape:grid
       type="xygrid"
       id="grid122"
       empspacing="10" />
  </sodipodi:namedview>
  <metadata
     id="metadata117">
    <rdf:RDF>
      <cc:Work
         rdf:about="">
        <dc:format>image/svg+xml</dc:format>
        <dc:type
           rdf:resource="http://purl.org/dc/dcmitype/StillImage" />
        <dc:title />
      </cc:Work>
    </rdf:RDF>
  </metadata>
  <g
     inkscape:groupmode="layer"
     id="layer3"
     inkscape:label="Background"
     sodipodi:insensitive="true">
    <rect
       style="fill:#ffffff;stroke:#000000;stroke-width:2.12947;stroke-linejoin:round;stroke-miterlimit:4;stroke-dasharray:none"
       id="rect462"
       width="59.783031"
       height="85.712204"
       x="1.0647345"
       y="1.0647345"
       rx="3.9970529" />
  </g>
  <g
     inkscape:groupmode="layer"
     id="layer2"
     inkscape:label="Center_Img"
     sodipodi:insensitive="true">
    <g
       id="g2174"
       transform="matrix(3.8946653,0,0,3.8365819,14.833374,37.68637)">
      <g
         inkscape:label="Border"
         id="layer1-43"
         transform="translate(-1.2562513,-289.42313)">
        <rect
           style="fill:none;stroke:url(#linearGradient2275-1);stroke-width:1.00993;stroke-miterlimit:4;stroke-dasharray:none;paint-order:normal"
           id="rect821-4"
           width="9.7740402"
           height="9.9370947"
           x="0.50896454"
           y="286.07959"
           ry="1.9389515" />
      </g>
      <g
         id="layer2-4"
         inkscape:label="Complete_Action"
         transform="translate(-0.94026703,-4.0899956)">
        <g
           id="g400">
          <circle
             style="display:none;stroke:#000000;stroke-width:0.937152;stroke-linecap:round;stroke-linejoin:round;stroke-miterlimit:4;stroke-dasharray:none;stroke-opacity:1"
             id="path4597"
             cx="5.0800004"
             cy="5.7150002"
             r="3.0239244"
             inkscape:label="circle"
             sodipodi:insensitive="true" />
          <ellipse
             style="display:inline;opacity:1;fill:url(#2020DF);stroke:#000000;stroke-width:0.154607;stroke-linecap:round;stroke-linejoin:round;stroke-miterlimit:4;stroke-dasharray:none;stroke-opacity:1"
             id="path4597-7"
             cx="5.0799665"
             cy="5.7150002"
             inkscape:label="circle"
             rx="3.4151909"
             ry="3.4152045"
             sodipodi:insensitive="true" />
          <path
             style="color:#000000;font-style:normal;font-variant:normal;font-weight:normal;font-stretch:normal;font-size:medium;line-height:normal;font-family:sans-serif;font-variant-ligatures:normal;font-variant-position:normal;font-variant-caps:normal;font-variant-numeric:normal;font-variant-alternates:normal;font-feature-settings:normal;text-indent:0;text-align:start;text-decoration:none;text-decoration-line:none;text-decoration-style:solid;text-decoration-color:#000000;letter-spacing:normal;word-spacing:normal;text-transform:none;writing-mode:lr-tb;direction:ltr;text-orientation:mixed;dominant-baseline:auto;baseline-shift:baseline;text-anchor:start;white-space:normal;shape-padding:0;clip-rule:nonzero;display:inline;overflow:visible;visibility:visible;opacity:1;isolation:auto;mix-blend-mode:normal;color-interpolation:sRGB;color-interpolation-filters:linearRGB;solid-color:#000000;solid-opacity:1;vector-effect:none;fill:#ffffff;fill-opacity:1;fill-rule:nonzero;stroke:url(#linearGradient4767);stroke-width:0.13689424;stroke-linecap:round;stroke-linejoin:round;stroke-miterlimit:4;stroke-dasharray:none;stroke-dashoffset:0;stroke-opacity:1;color-rendering:auto;image-rendering:auto;shape-rendering:auto;text-rendering:auto;enable-background:accumulate"
             d="M 6.9707031,3.7949219 A 0.54156104,0.54156104 0 0 0 6.5683594,4.0117188 L 4.6152344,6.5488281 3.4394531,5.5410156 A 0.54158468,0.54158468 0 1 0 2.734375,6.3632812 l 1.6113281,1.3808594 a 0.54156104,0.54156104 0 0 0 0.78125,-0.082031 L 7.4277344,4.671875 A 0.54156104,0.54156104 0 0 0 6.9707031,3.7949219 Z"
             id="path4589"
             inkscape:connector-curvature="0"
             inkscape:label="check"
             sodipodi:insensitive="true" />
        </g>
      </g>
    </g>
  </g>
  <g
     inkscape:groupmode="layer"
     id="layer7"
     inkscape:label="Bott_Right"
     style="display:inline"
     sodipodi:insensitive="true">
    <g
       id="g2323-4"
       transform="rotate(180,28.973875,41.938783)">
      <g
         inkscape:label="Border"
         id="layer1-2-7"
         transform="translate(0,-285.56998)">
        <rect
           style="fill:none;stroke:url(#linearGradient2410);stroke-width:0.983737;stroke-miterlimit:4;stroke-dasharray:none;paint-order:normal"
           id="rect821-7-6"
           width="9.5995989"
           height="9.599597"
           x="0.4958663"
           y="286.0665"
           ry="1.8730978" />
      </g>
      <g
         id="layer2-9-3"
         inkscape:label="Complete_Action"
         transform="translate(0.21566534,-0.41868386)">
        <g
           id="g400-7-0">
          <circle
             style="display:inline;stroke:#000000;stroke-width:0.937152;stroke-linecap:round;stroke-linejoin:round;stroke-miterlimit:4;stroke-dasharray:none;stroke-opacity:1"
             id="path4597-5-7"
             cx="5.0800004"
             cy="5.7150002"
             r="3.0239244"
             sodipodi:insensitive="true"
             inkscape:label="circle" />
          <path
             style="color:#000000;font-style:normal;font-variant:normal;font-weight:normal;font-stretch:normal;font-size:medium;line-height:normal;font-family:sans-serif;font-variant-ligatures:normal;font-variant-position:normal;font-variant-caps:normal;font-variant-numeric:normal;font-variant-alternates:normal;font-feature-settings:normal;text-indent:0;text-align:start;text-decoration:none;text-decoration-line:none;text-decoration-style:solid;text-decoration-color:#000000;letter-spacing:normal;word-spacing:normal;text-transform:none;writing-mode:lr-tb;direction:ltr;text-orientation:mixed;dominant-baseline:auto;baseline-shift:baseline;text-anchor:start;white-space:normal;shape-padding:0;clip-rule:nonzero;display:inline;overflow:visible;visibility:visible;opacity:1;isolation:auto;mix-blend-mode:normal;color-interpolation:sRGB;color-interpolation-filters:linearRGB;solid-color:#000000;solid-opacity:1;vector-effect:none;fill:#ffffff;fill-opacity:1;fill-rule:nonzero;stroke:none;stroke-width:1.08301;stroke-linecap:round;stroke-linejoin:round;stroke-miterlimit:4;stroke-dasharray:none;stroke-dashoffset:0;stroke-opacity:1;color-rendering:auto;image-rendering:auto;shape-rendering:auto;text-rendering:auto;enable-background:accumulate"
             d="M 6.9707031,3.7949219 A 0.54156104,0.54156104 0 0 0 6.5683594,4.0117188 L 4.6152344,6.5488281 3.4394531,5.5410156 A 0.54158468,0.54158468 0 1 0 2.734375,6.3632812 l 1.6113281,1.3808594 a 0.54156104,0.54156104 0 0 0 0.78125,-0.082031 L 7.4277344,4.671875 A 0.54156104,0.54156104 0 0 0 6.9707031,3.7949219 Z"
             id="path4589-5-3"
             inkscape:connector-curvature="0"
             sodipodi:insensitive="true"
             inkscape:label="check" />
        </g>
      </g>
    </g>
  </g>
  <g
     inkscape:groupmode="layer"
     id="layer6"
     inkscape:label="Bott_Left"
     sodipodi:insensitive="true">
    <g
       id="g2323-0"
       transform="rotate(180,7.2780418,41.938783)">
      <g
         inkscape:label="Border"
         id="layer1-2-0"
         transform="translate(0,-285.56998)">
        <rect
           style="fill:none;stroke:url(#linearGradient2387);stroke-width:0.983737;stroke-miterlimit:4;stroke-dasharray:none;paint-order:normal"
           id="rect821-7-0"
           width="9.5995989"
           height="9.599597"
           x="0.4958663"
           y="286.0665"
           ry="1.8730978" />
      </g>
      <g
         id="layer2-9-0"
         inkscape:label="Complete_Action"
         transform="translate(0.21566534,-0.41868386)">
        <g
           id="g400-7-3">
          <circle
             style="display:inline;stroke:#000000;stroke-width:0.937152;stroke-linecap:round;stroke-linejoin:round;stroke-miterlimit:4;stroke-dasharray:none;stroke-opacity:1"
             id="path4597-5-0"
             cx="5.0800004"
             cy="5.7150002"
             r="3.0239244"
             sodipodi:insensitive="true"
             inkscape:label="circle" />
          <path
             style="color:#000000;font-style:normal;font-variant:normal;font-weight:normal;font-stretch:normal;font-size:medium;line-height:normal;font-family:sans-serif;font-variant-ligatures:normal;font-variant-position:normal;font-variant-caps:normal;font-variant-numeric:normal;font-variant-alternates:normal;font-feature-settings:normal;text-indent:0;text-align:start;text-decoration:none;text-decoration-line:none;text-decoration-style:solid;text-decoration-color:#000000;letter-spacing:normal;word-spacing:normal;text-transform:none;writing-mode:lr-tb;direction:ltr;text-orientation:mixed;dominant-baseline:auto;baseline-shift:baseline;text-anchor:start;white-space:normal;shape-padding:0;clip-rule:nonzero;display:inline;overflow:visible;visibility:visible;opacity:1;isolation:auto;mix-blend-mode:normal;color-interpolation:sRGB;color-interpolation-filters:linearRGB;solid-color:#000000;solid-opacity:1;vector-effect:none;fill:#ffffff;fill-opacity:1;fill-rule:nonzero;stroke:none;stroke-width:1.08301;stroke-linecap:round;stroke-linejoin:round;stroke-miterlimit:4;stroke-dasharray:none;stroke-dashoffset:0;stroke-opacity:1;color-rendering:auto;image-rendering:auto;shape-rendering:auto;text-rendering:auto;enable-background:accumulate"
             d="M 6.9707031,3.7949219 A 0.54156104,0.54156104 0 0 0 6.5683594,4.0117188 L 4.6152344,6.5488281 3.4394531,5.5410156 A 0.54158468,0.54158468 0 1 0 2.734375,6.3632812 l 1.6113281,1.3808594 a 0.54156104,0.54156104 0 0 0 0.78125,-0.082031 L 7.4277344,4.671875 A 0.54156104,0.54156104 0 0 0 6.9707031,3.7949219 Z"
             id="path4589-5-78"
             inkscape:connector-curvature="0"
             sodipodi:insensitive="true"
             inkscape:label="check" />
        </g>
      </g>
    </g>
  </g>
  <g
     id="layer9"
     inkscape:label="Bott_C"
     sodipodi:insensitive="true">
    <g
       id="g1648-2"
       transform="rotate(180,18.227735,41.93546)">
      <g
         inkscape:label="Border"
         id="layer1-8"
         transform="translate(0,-285.56998)">
        <rect
           style="fill:none;stroke:url(#linearGradient1687);stroke-width:1.00155;stroke-miterlimit:4;stroke-dasharray:none;paint-order:normal"
           id="rect821-9"
           width="9.58179"
           height="9.5817852"
           x="0.49877164"
           y="286.06876"
           ry="1.8696227" />
      </g>
      <g
         id="layer3-5-6"
         inkscape:label="Letter">
        <text
           xml:space="preserve"
           style="font-style:normal;font-variant:normal;font-weight:bold;font-stretch:normal;font-size:9.87778px;line-height:1.25;font-family:Helvetica;-inkscape-font-specification:'Helvetica, Bold';font-variant-ligatures:normal;font-variant-caps:normal;font-variant-numeric:normal;font-variant-east-asian:normal;text-align:start;letter-spacing:0px;word-spacing:0px;writing-mode:lr-tb;text-anchor:start;fill:url(#2020DF);fill-opacity:1;stroke:none;stroke-width:0.01;stroke-miterlimit:4;stroke-dasharray:none"
           x="1.6843741"
           y="8.8129683"
           id="text147-0"><tspan
             sodipodi:role="line"
             id="tspan145-4"
             x="1.6843741"
             y="8.8129683"
             style="font-style:normal;font-variant:normal;font-weight:bold;font-stretch:normal;font-size:9.87778px;font-family:Helvetica;-inkscape-font-specification:'Helvetica, Bold';font-variant-ligatures:normal;font-variant-caps:normal;font-variant-numeric:normal;font-variant-east-asian:normal;text-align:start;writing-mode:lr-tb;text-anchor:start;fill:url(#2020DF);stroke-width:0.01;stroke-miterlimit:4;stroke-dasharray:none">C</tspan></text>
      </g>
    </g>
  </g>
  <g
     inkscape:groupmode="layer"
     id="layer8"
     inkscape:label="Top_C"
     sodipodi:insensitive="true">
    <g
       id="g1648"
       transform="translate(25.876249,3.9707576)">
      <g
         inkscape:label="Border"
         id="layer1"
         transform="translate(0,-285.56998)">
        <rect
           style="fill:none;stroke:url(#linearGradient2275);stroke-width:1.00155;stroke-miterlimit:4;stroke-dasharray:none;paint-order:normal"
           id="rect821"
           width="9.58179"
           height="9.5817852"
           x="0.49877164"
           y="286.06876"
           ry="1.8696227" />
      </g>
      <g
         id="layer3-5"
         inkscape:label="Letter">
        <text
           xml:space="preserve"
           style="font-style:normal;font-variant:normal;font-weight:bold;font-stretch:normal;font-size:9.87778px;line-height:1.25;font-family:Helvetica;-inkscape-font-specification:'Helvetica, Bold';font-variant-ligatures:normal;font-variant-caps:normal;font-variant-numeric:normal;font-variant-east-asian:normal;text-align:start;letter-spacing:0px;word-spacing:0px;writing-mode:lr-tb;text-anchor:start;fill:url(#2020DF);fill-opacity:1;stroke:none;stroke-width:0.01;stroke-miterlimit:4;stroke-dasharray:none"
           x="1.6843741"
           y="8.8129683"
           id="text147"><tspan
             sodipodi:role="line"
             id="tspan145"
             x="1.6843741"
             y="8.8129683"
             style="font-style:normal;font-variant:normal;font-weight:bold;font-stretch:normal;font-size:9.87778px;font-family:Helvetica;-inkscape-font-specification:'Helvetica, Bold';font-variant-ligatures:normal;font-variant-caps:normal;font-variant-numeric:normal;font-variant-east-asian:normal;text-align:start;writing-mode:lr-tb;text-anchor:start;fill:url(#2020DF);stroke-width:0.01;stroke-miterlimit:4;stroke-dasharray:none">C</tspan></text>
      </g>
    </g>
  </g>
  <g
     inkscape:groupmode="layer"
     id="layer5"
     inkscape:label="Top_Right"
     sodipodi:insensitive="true">
    <g
       id="g1935-5"
       transform="translate(47.356419,3.9641007)"
       style="display:none">
      <g
         inkscape:label="Border"
         id="layer1-4-6"
         transform="translate(0,-285.56998)">
        <rect
           style="fill:none;stroke:url(#linearGradient1979);stroke-width:0.983737;stroke-miterlimit:4;stroke-dasharray:none;paint-order:normal"
           id="rect821-99-8"
           width="9.5995989"
           height="9.599597"
           x="0.4958663"
           y="286.0665"
           ry="1.8730978" />
      </g>
      <g
         id="layer2-2-4"
         inkscape:label="Initiate_Action"
         transform="translate(-0.15346048,-0.41868398)">
        <path
           transform="matrix(1.6227068,0,0,1.7566317,-3.7215971,-4.547243)"
           style="stroke:url(#linearGradient4566-6);stroke-width:0.118459;stroke-linecap:round;stroke-linejoin:round;stroke-miterlimit:4;stroke-dasharray:none"
           inkscape:transform-center-x="-0.92737702"
           d="m 7.3660004,5.8420005 -1.7145,0.9898671 -1.7145,0.989867 V 5.8420004 3.8622664 l 1.7145001,0.9898671 z"
           id="path4559-2"
           inkscape:connector-curvature="0" />
      </g>
    </g>
    <g
       id="g2323-5"
       transform="translate(47.356419,3.9641007)">
      <g
         inkscape:label="Border"
         id="layer1-2-3"
         transform="translate(0,-285.56998)">
        <rect
           style="fill:none;stroke:url(#linearGradient2364);stroke-width:0.983737;stroke-miterlimit:4;stroke-dasharray:none;paint-order:normal"
           id="rect821-7-5"
           width="9.5995989"
           height="9.599597"
           x="0.4958663"
           y="286.0665"
           ry="1.8730978" />
      </g>
      <g
         id="layer2-9-9"
         inkscape:label="Complete_Action"
         transform="translate(0.21566534,-0.41868386)">
        <g
           id="g400-7-9">
          <circle
             style="display:inline;stroke:#000000;stroke-width:0.937152;stroke-linecap:round;stroke-linejoin:round;stroke-miterlimit:4;stroke-dasharray:none;stroke-opacity:1"
             id="path4597-5-4"
             cx="5.0800004"
             cy="5.7150002"
             r="3.0239244"
             sodipodi:insensitive="true"
             inkscape:label="circle" />
          <path
             style="color:#000000;font-style:normal;font-variant:normal;font-weight:normal;font-stretch:normal;font-size:medium;line-height:normal;font-family:sans-serif;font-variant-ligatures:normal;font-variant-position:normal;font-variant-caps:normal;font-variant-numeric:normal;font-variant-alternates:normal;font-feature-settings:normal;text-indent:0;text-align:start;text-decoration:none;text-decoration-line:none;text-decoration-style:solid;text-decoration-color:#000000;letter-spacing:normal;word-spacing:normal;text-transform:none;writing-mode:lr-tb;direction:ltr;text-orientation:mixed;dominant-baseline:auto;baseline-shift:baseline;text-anchor:start;white-space:normal;shape-padding:0;clip-rule:nonzero;display:inline;overflow:visible;visibility:visible;opacity:1;isolation:auto;mix-blend-mode:normal;color-interpolation:sRGB;color-interpolation-filters:linearRGB;solid-color:#000000;solid-opacity:1;vector-effect:none;fill:#ffffff;fill-opacity:1;fill-rule:nonzero;stroke:none;stroke-width:1.08301;stroke-linecap:round;stroke-linejoin:round;stroke-miterlimit:4;stroke-dasharray:none;stroke-dashoffset:0;stroke-opacity:1;color-rendering:auto;image-rendering:auto;shape-rendering:auto;text-rendering:auto;enable-background:accumulate"
             d="M 6.9707031,3.7949219 A 0.54156104,0.54156104 0 0 0 6.5683594,4.0117188 L 4.6152344,6.5488281 3.4394531,5.5410156 A 0.54158468,0.54158468 0 1 0 2.734375,6.3632812 l 1.6113281,1.3808594 a 0.54156104,0.54156104 0 0 0 0.78125,-0.082031 L 7.4277344,4.671875 A 0.54156104,0.54156104 0 0 0 6.9707031,3.7949219 Z"
             id="path4589-5-7"
             inkscape:connector-curvature="0"
             sodipodi:insensitive="true"
             inkscape:label="check" />
        </g>
      </g>
    </g>
  </g>
  <g
     inkscape:groupmode="layer"
     id="layer4"
     inkscape:label="Top_Left"
     sodipodi:insensitive="true">
    <g
       id="g2323"
       transform="translate(3.9647522,3.9641007)">
      <g
         inkscape:label="Border"
         id="layer1-2"
         transform="translate(0,-285.56998)">
        <rect
           style="fill:none;stroke:url(#linearGradient2275-7);stroke-width:0.983737;stroke-miterlimit:4;stroke-dasharray:none;paint-order:normal"
           id="rect821-7"
           width="9.5995989"
           height="9.599597"
           x="0.4958663"
           y="286.0665"
           ry="1.8730978" />
      </g>
      <g
         id="layer2-9"
         inkscape:label="Complete_Action"
         transform="translate(0.21566534,-0.41868386)">
        <g
           id="g400-7">
          <circle
             style="display:inline;stroke:#000000;stroke-width:0.937152;stroke-linecap:round;stroke-linejoin:round;stroke-miterlimit:4;stroke-dasharray:none;stroke-opacity:1"
             id="path4597-5"
             cx="5.0800004"
             cy="5.7150002"
             r="3.0239244"
             sodipodi:insensitive="true"
             inkscape:label="circle" />
          <path
             style="color:#000000;font-style:normal;font-variant:normal;font-weight:normal;font-stretch:normal;font-size:medium;line-height:normal;font-family:sans-serif;font-variant-ligatures:normal;font-variant-position:normal;font-variant-caps:normal;font-variant-numeric:normal;font-variant-alternates:normal;font-feature-settings:normal;text-indent:0;text-align:start;text-decoration:none;text-decoration-line:none;text-decoration-style:solid;text-decoration-color:#000000;letter-spacing:normal;word-spacing:normal;text-transform:none;writing-mode:lr-tb;direction:ltr;text-orientation:mixed;dominant-baseline:auto;baseline-shift:baseline;text-anchor:start;white-space:normal;shape-padding:0;clip-rule:nonzero;display:inline;overflow:visible;visibility:visible;opacity:1;isolation:auto;mix-blend-mode:normal;color-interpolation:sRGB;color-interpolation-filters:linearRGB;solid-color:#000000;solid-opacity:1;vector-effect:none;fill:#ffffff;fill-opacity:1;fill-rule:nonzero;stroke:none;stroke-width:1.08301;stroke-linecap:round;stroke-linejoin:round;stroke-miterlimit:4;stroke-dasharray:none;stroke-dashoffset:0;stroke-opacity:1;color-rendering:auto;image-rendering:auto;shape-rendering:auto;text-rendering:auto;enable-background:accumulate"
             d="M 6.9707031,3.7949219 A 0.54156104,0.54156104 0 0 0 6.5683594,4.0117188 L 4.6152344,6.5488281 3.4394531,5.5410156 A 0.54158468,0.54158468 0 1 0 2.734375,6.3632812 l 1.6113281,1.3808594 a 0.54156104,0.54156104 0 0 0 0.78125,-0.082031 L 7.4277344,4.671875 A 0.54156104,0.54156104 0 0 0 6.9707031,3.7949219 Z"
             id="path4589-5"
             inkscape:connector-curvature="0"
             sodipodi:insensitive="true"
             inkscape:label="check" />
        </g>
      </g>
    </g>
  </g>
  <g
     inkscape:groupmode="layer"
     id="layer13"
     inkscape:label="pallete"
     style="display:none">
    <rect
       style="fill:url(#linearGradient910);fill-opacity:1;stroke:#0000ff;stroke-width:0.264583;stop-color:#000000"
       id="rect904"
       width="5.2916665"
       height="5.2916665"
       x="-18.520834"
       y="13.229165" />
  </g>
</svg>
