{
  "1": "Recruit",
  "2": "Apprentice 2nd Class",
  "3": "Apprentice 1st Class",
  "4": "Journeyman 2nd Class",
  "5": "Journeyman 1st Class",
  "6": "Mate 2nd Class",
  "7": "Mate 1st Class",
  "8": "Warrant Officer",
  "9": "Master Warrant Officer"
}