[gd_scene load_steps=3 format=3 uid="uid://dn0t0cmq7hlua"]

[ext_resource type="Texture2D" uid="uid://cuw6veyfxiv1c" path="res://assets/decks/pngs/deck_three_234x332_px.png" id="2"]
[ext_resource type="Script" path="res://scripts/DrawDeck.gd" id="3"]

[node name="Deck" type="TextureRect"]
offset_right = 254.0
offset_bottom = 332.0
texture = ExtResource("2")
expand_mode = 3
stretch_mode = 5
script = ExtResource("3")

[connection signal="gui_input" from="." to="." method="_on_Deck_gui_input"]
[connection signal="mouse_entered" from="." to="." method="_on_Deck_mouse_entered"]
[connection signal="mouse_exited" from="." to="." method="_on_Deck_mouse_exited"]
