[gd_scene load_steps=5 format=3 uid="uid://cef02v365747d"]

[ext_resource type="Texture2D" uid="uid://bivu5au511qam" path="res://assets/buttons/bg_234x75.png" id="1"]
[ext_resource type="FontFile" uid="uid://duwwan0ewy370" path="res://assets/fonts/Roboto-Medium.ttf" id="2"]
[ext_resource type="Script" path="res://scripts/NamePlate.gd" id="3"]

[sub_resource type="FontFile" id="1"]
fallbacks = Array[Font]([ExtResource("2"), ExtResource("2")])
subpixel_positioning = 0
msdf_pixel_range = 14
msdf_size = 128
cache/0/16/0/ascent = 0.0
cache/0/16/0/descent = 0.0
cache/0/16/0/underline_position = 0.0
cache/0/16/0/underline_thickness = 0.0
cache/0/16/0/scale = 1.0
cache/0/16/0/kerning_overrides/16/0 = Vector2(0, 0)

[node name="NamePlate" type="Node2D"]
script = ExtResource("3")

[node name="Name_BG" type="TextureRect" parent="."]
offset_right = 234.0
offset_bottom = 75.0
texture = ExtResource("1")
stretch_mode = 5

[node name="CenterContainer" type="CenterContainer" parent="."]
custom_minimum_size = Vector2(234, 75)
offset_right = 234.0
offset_bottom = 75.0

[node name="Label" type="Label" parent="CenterContainer"]
layout_mode = 2
size_flags_horizontal = 3
size_flags_vertical = 3
theme_override_colors/font_color = Color(0, 0, 0, 1)
theme_override_fonts/font = SubResource("1")
text = "CPT XXXXXXX"

[node name="BoundingBox" type="MarginContainer" parent="."]
offset_left = 14.0
offset_top = 14.0
offset_right = 220.0
offset_bottom = 60.0
