<?xml version="1.0" encoding="UTF-8" standalone="no"?>
<svg
   xmlns:osb="http://www.openswatchbook.org/uri/2009/osb"
   xmlns:dc="http://purl.org/dc/elements/1.1/"
   xmlns:cc="http://creativecommons.org/ns#"
   xmlns:rdf="http://www.w3.org/1999/02/22-rdf-syntax-ns#"
   xmlns:svg="http://www.w3.org/2000/svg"
   xmlns="http://www.w3.org/2000/svg"
   xmlns:xlink="http://www.w3.org/1999/xlink"
   xmlns:sodipodi="http://sodipodi.sourceforge.net/DTD/sodipodi-0.dtd"
   xmlns:inkscape="http://www.inkscape.org/namespaces/inkscape"
   width="234"
   height="332"
   viewBox="0 0 61.912498 87.841669"
   version="1.1"
   id="svg120"
   inkscape:version="1.0.1 (c497b03c, 2020-09-10)"
   sodipodi:docname="command_officer_order_234x332_px.svg"
   inkscape:export-filename="/Users/aroberts/GIT_Repos/scifi-solitaire/spacestation/appfactory/godot/assets/cards/command/officer/primaries/order.png"
   inkscape:export-xdpi="96"
   inkscape:export-ydpi="96">
  <defs
     id="defs114">
    <linearGradient
       id="linearGradient4767"
       osb:paint="solid">
      <stop
         style="stop-color:#000000;stop-opacity:1;"
         offset="0"
         id="stop4765" />
    </linearGradient>
    <linearGradient
       inkscape:collect="always"
       xlink:href="#linearGradient4767"
       id="linearGradient2275"
       x1="0.45800001"
       y1="291.28497"
       x2="9.702001"
       y2="291.28497"
       gradientUnits="userSpaceOnUse"
       gradientTransform="matrix(1.0478772,0,0,0.92008679,-0.03355002,22.852182)" />
    <linearGradient
       inkscape:collect="always"
       xlink:href="#linearGradient4767"
       id="linearGradient1687"
       gradientUnits="userSpaceOnUse"
       gradientTransform="matrix(1.0478772,0,0,0.92008679,-0.03355002,22.852182)"
       x1="0.45800001"
       y1="291.28497"
       x2="9.702001"
       y2="291.28497" />
  </defs>
  <sodipodi:namedview
     id="base"
     pagecolor="#ffffff"
     bordercolor="#666666"
     borderopacity="1.0"
     inkscape:pageopacity="0.0"
     inkscape:pageshadow="2"
     inkscape:zoom="1.8263307"
     inkscape:cx="113.99849"
     inkscape:cy="166"
     inkscape:document-units="px"
     inkscape:current-layer="layer4"
     inkscape:document-rotation="0"
     showgrid="true"
     units="px"
     inkscape:window-width="1440"
     inkscape:window-height="855"
     inkscape:window-x="0"
     inkscape:window-y="24"
     inkscape:window-maximized="0">
    <inkscape:grid
       type="xygrid"
       id="grid122"
       empspacing="10" />
  </sodipodi:namedview>
  <metadata
     id="metadata117">
    <rdf:RDF>
      <cc:Work
         rdf:about="">
        <dc:format>image/svg+xml</dc:format>
        <dc:type
           rdf:resource="http://purl.org/dc/dcmitype/StillImage" />
        <dc:title />
      </cc:Work>
    </rdf:RDF>
  </metadata>
  <g
     inkscape:groupmode="layer"
     id="layer3"
     inkscape:label="Background"
     sodipodi:insensitive="true">
    <rect
       style="fill:#ffffff;stroke:#000000;stroke-width:2.12947;stroke-linejoin:round;stroke-miterlimit:4;stroke-dasharray:none"
       id="rect462"
       width="59.783031"
       height="85.712204"
       x="1.0647345"
       y="1.0647345"
       rx="3.9970529"
       inkscape:label="border" />
  </g>
  <g
     inkscape:groupmode="layer"
     id="layer2"
     inkscape:label="Center_Img"
     sodipodi:insensitive="true">
    <g
       id="g5983"
       transform="matrix(4.132231,0,0,3.6731771,9.9645143,22.928651)"
       inkscape:label="order_bubble"
       style="display:inline">
      <g
         transform="translate(0,-285.56998)"
         id="layer1-9"
         inkscape:label="Border">
        <rect
           inkscape:label="border"
           ry="2.032007"
           y="286.07797"
           x="0.50800002"
           height="10.414001"
           width="9.144001"
           id="rect821-8"
           style="fill:none;stroke:#000000;stroke-width:1.02;stroke-miterlimit:4;stroke-dasharray:none;paint-order:normal" />
      </g>
      <g
         inkscape:label="Order_Bubble"
         id="layer3-4">
        <path
           inkscape:label="word_bubble"
           sodipodi:nodetypes="scccssss"
           inkscape:connector-curvature="0"
           id="path4752"
           d="m 8.6255194,5.0646726 c 0,0.6971691 -0.3968461,1.3283371 -1.0384591,1.785213 -0.1604033,0.114219 -0.3361045,0.2175447 -0.5247275,0.3082851 0.04294,0.7158296 -0.4650601,1.7318297 -1.9890602,1.7318297 0.762,-0.5080001 0.4962598,-1.3006553 0.00673,-1.3006553 -1.9581373,0 -3.5455212,-1.1303344 -3.5455212,-2.5246725 C 1.5344768,3.6703345 3.1218607,2.54 5.0799981,2.54 c 1.9581374,0 3.5455213,1.1303344 3.5455213,2.5246726 z"
           style="fill:#ff0000;stroke:#000000;stroke-width:0.135825;stroke-miterlimit:4;stroke-dasharray:none;paint-order:normal" />
        <text
           inkscape:label="exclamation"
           transform="scale(1.2385793,0.80737664)"
           id="text4757"
           y="8.4119091"
           x="3.2229657"
           style="font-style:normal;font-variant:normal;font-weight:normal;font-stretch:normal;font-size:5.87631px;line-height:1.25;font-family:C059;-inkscape-font-specification:'C059, Normal';font-variant-ligatures:normal;font-variant-caps:normal;font-variant-numeric:normal;font-feature-settings:normal;text-align:start;letter-spacing:0px;word-spacing:0px;writing-mode:lr-tb;text-anchor:start;fill:#ffffff;fill-opacity:1;stroke:#000000;stroke-width:0.135825;stroke-miterlimit:4;stroke-dasharray:none"
           xml:space="preserve"><tspan
             style="font-style:normal;font-variant:normal;font-weight:normal;font-stretch:normal;font-size:5.87631px;font-family:C059;-inkscape-font-specification:'C059, Normal';font-variant-ligatures:normal;font-variant-caps:normal;font-variant-numeric:normal;font-feature-settings:normal;text-align:start;writing-mode:lr-tb;text-anchor:start;fill:#ffffff;stroke:#000000;stroke-width:0.135825;stroke-miterlimit:4;stroke-dasharray:none"
             y="8.4119091"
             x="3.2229657"
             id="tspan4755"
             sodipodi:role="line">!</tspan></text>
      </g>
    </g>
  </g>
  <g
     inkscape:groupmode="layer"
     id="layer4"
     inkscape:label="Top_Left"
     sodipodi:insensitive="true">
    <g
       id="g5983-3"
       transform="matrix(1.0414218,0,0,0.92547085,3.9699194,3.971421)"
       inkscape:label="order_bubble"
       style="display:inline">
      <g
         transform="translate(0,-285.56998)"
         id="layer1-9-0"
         inkscape:label="Border">
        <rect
           inkscape:label="border"
           ry="2.0323246"
           y="286.07709"
           x="0.50887227"
           height="10.415628"
           width="9.1423988"
           id="rect821-8-4"
           style="fill:none;stroke:#000000;stroke-width:1.01999;stroke-miterlimit:4;stroke-dasharray:none;paint-order:normal" />
      </g>
      <g
         inkscape:label="Order_Bubble"
         id="layer3-4-8"
         transform="translate(7.1287703e-5,-7.8581042e-5)">
        <path
           inkscape:label="word_bubble"
           sodipodi:nodetypes="scccssss"
           inkscape:connector-curvature="0"
           id="path4752-7"
           d="m 8.6255194,5.0646726 c 0,0.6971691 -0.3968461,1.3283371 -1.0384591,1.785213 -0.1604033,0.114219 -0.3361045,0.2175447 -0.5247275,0.3082851 0.04294,0.7158296 -0.4650601,1.7318297 -1.9890602,1.7318297 0.762,-0.5080001 0.4962598,-1.3006553 0.00673,-1.3006553 -1.9581373,0 -3.5455212,-1.1303344 -3.5455212,-2.5246725 C 1.5344768,3.6703345 3.1218607,2.54 5.0799981,2.54 c 1.9581374,0 3.5455213,1.1303344 3.5455213,2.5246726 z"
           style="fill:url(#linearGradient4767);stroke:none;stroke-width:2.30546;stroke-miterlimit:4;stroke-dasharray:none;paint-order:normal" />
        <text
           inkscape:label="exclamation"
           transform="scale(1.2385793,0.80737664)"
           id="text4757-1"
           y="8.4119091"
           x="3.2229657"
           style="font-style:normal;font-variant:normal;font-weight:normal;font-stretch:normal;font-size:5.87631px;line-height:1.25;font-family:C059;-inkscape-font-specification:'C059, Normal';font-variant-ligatures:normal;font-variant-caps:normal;font-variant-numeric:normal;font-feature-settings:normal;text-align:start;letter-spacing:0px;word-spacing:0px;writing-mode:lr-tb;text-anchor:start;fill:#ffffff;fill-opacity:1;stroke:none;stroke-width:0.146908"
           xml:space="preserve"><tspan
             style="font-style:normal;font-variant:normal;font-weight:normal;font-stretch:normal;font-size:5.87631px;font-family:C059;-inkscape-font-specification:'C059, Normal';font-variant-ligatures:normal;font-variant-caps:normal;font-variant-numeric:normal;font-feature-settings:normal;text-align:start;writing-mode:lr-tb;text-anchor:start;fill:#ffffff;stroke-width:0.146908"
             y="8.4119091"
             x="3.2229657"
             id="tspan4755-4"
             sodipodi:role="line">!</tspan></text>
      </g>
    </g>
  </g>
  <g
     inkscape:groupmode="layer"
     id="layer5"
     inkscape:label="Top_Right"
     sodipodi:insensitive="true">
    <g
       id="g5983-3-5"
       transform="matrix(1.0414218,0,0,0.92547085,47.361586,3.9714224)"
       inkscape:label="order_bubble"
       style="display:inline">
      <g
         transform="translate(0,-285.56998)"
         id="layer1-9-0-6"
         inkscape:label="Border">
        <rect
           inkscape:label="border"
           ry="2.0323246"
           y="286.07709"
           x="0.50887227"
           height="10.415628"
           width="9.1423988"
           id="rect821-8-4-9"
           style="fill:none;stroke:url(#linearGradient4767);stroke-width:1.01999;stroke-miterlimit:4;stroke-dasharray:none;paint-order:normal" />
      </g>
      <g
         inkscape:label="Order_Bubble"
         id="layer3-4-8-7"
         transform="translate(7.1287703e-5,-7.8581042e-5)">
        <path
           inkscape:label="word_bubble"
           sodipodi:nodetypes="scccssss"
           inkscape:connector-curvature="0"
           id="path4752-7-3"
           d="m 8.6255194,5.0646726 c 0,0.6971691 -0.3968461,1.3283371 -1.0384591,1.785213 -0.1604033,0.114219 -0.3361045,0.2175447 -0.5247275,0.3082851 0.04294,0.7158296 -0.4650601,1.7318297 -1.9890602,1.7318297 0.762,-0.5080001 0.4962598,-1.3006553 0.00673,-1.3006553 -1.9581373,0 -3.5455212,-1.1303344 -3.5455212,-2.5246725 C 1.5344768,3.6703345 3.1218607,2.54 5.0799981,2.54 c 1.9581374,0 3.5455213,1.1303344 3.5455213,2.5246726 z"
           style="fill:url(#linearGradient4767);stroke:none;stroke-width:2.30546;stroke-miterlimit:4;stroke-dasharray:none;paint-order:normal" />
        <text
           inkscape:label="exclamation"
           transform="scale(1.2385793,0.80737664)"
           id="text4757-1-9"
           y="8.4119091"
           x="3.2229657"
           style="font-style:normal;font-variant:normal;font-weight:normal;font-stretch:normal;font-size:5.87631px;line-height:1.25;font-family:C059;-inkscape-font-specification:'C059, Normal';font-variant-ligatures:normal;font-variant-caps:normal;font-variant-numeric:normal;font-feature-settings:normal;text-align:start;letter-spacing:0px;word-spacing:0px;writing-mode:lr-tb;text-anchor:start;fill:#ffffff;fill-opacity:1;stroke:none;stroke-width:0.146908"
           xml:space="preserve"><tspan
             style="font-style:normal;font-variant:normal;font-weight:normal;font-stretch:normal;font-size:5.87631px;font-family:C059;-inkscape-font-specification:'C059, Normal';font-variant-ligatures:normal;font-variant-caps:normal;font-variant-numeric:normal;font-feature-settings:normal;text-align:start;writing-mode:lr-tb;text-anchor:start;fill:#ffffff;stroke-width:0.146908"
             y="8.4119091"
             x="3.2229657"
             id="tspan4755-4-9"
             sodipodi:role="line">!</tspan></text>
      </g>
    </g>
  </g>
  <g
     inkscape:groupmode="layer"
     id="layer6"
     inkscape:label="Bott_Left"
     sodipodi:insensitive="true">
    <g
       id="g5983-3-9"
       transform="matrix(-1.0414218,0,0,-0.92547085,14.550914,83.870242)"
       inkscape:label="order_bubble"
       style="display:inline">
      <g
         transform="translate(0,-285.56998)"
         id="layer1-9-0-7"
         inkscape:label="Border">
        <rect
           inkscape:label="border"
           ry="2.0323246"
           y="286.07709"
           x="0.50887227"
           height="10.415628"
           width="9.1423988"
           id="rect821-8-4-0"
           style="fill:none;stroke:url(#linearGradient4767);stroke-width:1.01999;stroke-miterlimit:4;stroke-dasharray:none;paint-order:normal" />
      </g>
      <g
         inkscape:label="Order_Bubble"
         id="layer3-4-8-4"
         transform="translate(7.1287703e-5,-7.8581042e-5)">
        <path
           inkscape:label="word_bubble"
           sodipodi:nodetypes="scccssss"
           inkscape:connector-curvature="0"
           id="path4752-7-4"
           d="m 8.6255194,5.0646726 c 0,0.6971691 -0.3968461,1.3283371 -1.0384591,1.785213 -0.1604033,0.114219 -0.3361045,0.2175447 -0.5247275,0.3082851 0.04294,0.7158296 -0.4650601,1.7318297 -1.9890602,1.7318297 0.762,-0.5080001 0.4962598,-1.3006553 0.00673,-1.3006553 -1.9581373,0 -3.5455212,-1.1303344 -3.5455212,-2.5246725 C 1.5344768,3.6703345 3.1218607,2.54 5.0799981,2.54 c 1.9581374,0 3.5455213,1.1303344 3.5455213,2.5246726 z"
           style="fill:url(#linearGradient4767);stroke:none;stroke-width:2.30546;stroke-miterlimit:4;stroke-dasharray:none;paint-order:normal" />
        <text
           inkscape:label="exclamation"
           transform="scale(1.2385793,0.80737664)"
           id="text4757-1-5"
           y="8.4119091"
           x="3.2229657"
           style="font-style:normal;font-variant:normal;font-weight:normal;font-stretch:normal;font-size:5.87631px;line-height:1.25;font-family:C059;-inkscape-font-specification:'C059, Normal';font-variant-ligatures:normal;font-variant-caps:normal;font-variant-numeric:normal;font-feature-settings:normal;text-align:start;letter-spacing:0px;word-spacing:0px;writing-mode:lr-tb;text-anchor:start;fill:#ffffff;fill-opacity:1;stroke:none;stroke-width:0.146908"
           xml:space="preserve"><tspan
             style="font-style:normal;font-variant:normal;font-weight:normal;font-stretch:normal;font-size:5.87631px;font-family:C059;-inkscape-font-specification:'C059, Normal';font-variant-ligatures:normal;font-variant-caps:normal;font-variant-numeric:normal;font-feature-settings:normal;text-align:start;writing-mode:lr-tb;text-anchor:start;fill:#ffffff;stroke-width:0.146908"
             y="8.4119091"
             x="3.2229657"
             id="tspan4755-4-1"
             sodipodi:role="line">!</tspan></text>
      </g>
    </g>
  </g>
  <g
     inkscape:groupmode="layer"
     id="layer7"
     inkscape:label="Bott_Right"
     sodipodi:insensitive="true">
    <g
       id="g5983-3-6"
       transform="matrix(-1.0414218,0,0,-0.92547085,57.942581,83.870242)"
       inkscape:label="order_bubble"
       style="display:inline">
      <g
         transform="translate(0,-285.56998)"
         id="layer1-9-0-1"
         inkscape:label="Border">
        <rect
           inkscape:label="border"
           ry="2.0323246"
           y="286.07709"
           x="0.50887227"
           height="10.415628"
           width="9.1423988"
           id="rect821-8-4-6"
           style="fill:none;stroke:url(#linearGradient4767);stroke-width:1.01999;stroke-miterlimit:4;stroke-dasharray:none;paint-order:normal" />
      </g>
      <g
         inkscape:label="Order_Bubble"
         id="layer3-4-8-2"
         transform="translate(7.1287703e-5,-7.8581042e-5)">
        <path
           inkscape:label="word_bubble"
           sodipodi:nodetypes="scccssss"
           inkscape:connector-curvature="0"
           id="path4752-7-2"
           d="m 8.6255194,5.0646726 c 0,0.6971691 -0.3968461,1.3283371 -1.0384591,1.785213 -0.1604033,0.114219 -0.3361045,0.2175447 -0.5247275,0.3082851 0.04294,0.7158296 -0.4650601,1.7318297 -1.9890602,1.7318297 0.762,-0.5080001 0.4962598,-1.3006553 0.00673,-1.3006553 -1.9581373,0 -3.5455212,-1.1303344 -3.5455212,-2.5246725 C 1.5344768,3.6703345 3.1218607,2.54 5.0799981,2.54 c 1.9581374,0 3.5455213,1.1303344 3.5455213,2.5246726 z"
           style="fill:url(#linearGradient4767);stroke:none;stroke-width:2.30546;stroke-miterlimit:4;stroke-dasharray:none;paint-order:normal" />
        <text
           inkscape:label="exclamation"
           transform="scale(1.2385793,0.80737664)"
           id="text4757-1-1"
           y="8.4119091"
           x="3.2229657"
           style="font-style:normal;font-variant:normal;font-weight:normal;font-stretch:normal;font-size:5.87631px;line-height:1.25;font-family:C059;-inkscape-font-specification:'C059, Normal';font-variant-ligatures:normal;font-variant-caps:normal;font-variant-numeric:normal;font-feature-settings:normal;text-align:start;letter-spacing:0px;word-spacing:0px;writing-mode:lr-tb;text-anchor:start;fill:#ffffff;fill-opacity:1;stroke:none;stroke-width:0.146908"
           xml:space="preserve"><tspan
             style="font-style:normal;font-variant:normal;font-weight:normal;font-stretch:normal;font-size:5.87631px;font-family:C059;-inkscape-font-specification:'C059, Normal';font-variant-ligatures:normal;font-variant-caps:normal;font-variant-numeric:normal;font-feature-settings:normal;text-align:start;writing-mode:lr-tb;text-anchor:start;fill:#ffffff;stroke-width:0.146908"
             y="8.4119091"
             x="3.2229657"
             id="tspan4755-4-4"
             sodipodi:role="line">!</tspan></text>
      </g>
    </g>
  </g>
  <g
     inkscape:groupmode="layer"
     id="layer8"
     inkscape:label="Top_C"
     sodipodi:insensitive="true"
     style="display:inline">
    <g
       id="g1648"
       transform="translate(25.876249,3.9707576)">
      <g
         inkscape:label="Border"
         id="layer1"
         transform="translate(0,-285.56998)">
        <rect
           style="fill:none;stroke:url(#linearGradient2275);stroke-width:1.00155;stroke-miterlimit:4;stroke-dasharray:none;paint-order:normal"
           id="rect821"
           width="9.58179"
           height="9.5817852"
           x="0.49877164"
           y="286.06876"
           ry="1.8696227" />
      </g>
      <g
         id="layer3-5"
         inkscape:label="Letter">
        <text
           xml:space="preserve"
           style="font-style:normal;font-variant:normal;font-weight:bold;font-stretch:normal;font-size:9.87778px;line-height:1.25;font-family:Helvetica;-inkscape-font-specification:'Helvetica, Bold';font-variant-ligatures:normal;font-variant-caps:normal;font-variant-numeric:normal;font-variant-east-asian:normal;text-align:start;letter-spacing:0px;word-spacing:0px;writing-mode:lr-tb;text-anchor:start;fill:#000000;fill-opacity:1;stroke:none;stroke-width:0.01;stroke-miterlimit:4;stroke-dasharray:none"
           x="1.6843741"
           y="8.8129683"
           id="text147"><tspan
             sodipodi:role="line"
             id="tspan145"
             x="1.6843741"
             y="8.8129683"
             style="font-style:normal;font-variant:normal;font-weight:bold;font-stretch:normal;font-size:9.87778px;font-family:Helvetica;-inkscape-font-specification:'Helvetica, Bold';font-variant-ligatures:normal;font-variant-caps:normal;font-variant-numeric:normal;font-variant-east-asian:normal;text-align:start;writing-mode:lr-tb;text-anchor:start;stroke-width:0.01;stroke-miterlimit:4;stroke-dasharray:none">C</tspan></text>
      </g>
    </g>
  </g>
  <g
     id="layer9"
     inkscape:label="Bott_C"
     sodipodi:insensitive="true"
     style="display:inline">
    <g
       id="g1648-2"
       transform="rotate(180,18.227735,41.93546)">
      <g
         inkscape:label="Border"
         id="layer1-8"
         transform="translate(0,-285.56998)">
        <rect
           style="fill:none;stroke:url(#linearGradient1687);stroke-width:1.00155;stroke-miterlimit:4;stroke-dasharray:none;paint-order:normal"
           id="rect821-9"
           width="9.58179"
           height="9.5817852"
           x="0.49877164"
           y="286.06876"
           ry="1.8696227" />
      </g>
      <g
         id="layer3-5-6"
         inkscape:label="Letter">
        <text
           xml:space="preserve"
           style="font-style:normal;font-variant:normal;font-weight:bold;font-stretch:normal;font-size:9.87778px;line-height:1.25;font-family:Helvetica;-inkscape-font-specification:'Helvetica, Bold';font-variant-ligatures:normal;font-variant-caps:normal;font-variant-numeric:normal;font-variant-east-asian:normal;text-align:start;letter-spacing:0px;word-spacing:0px;writing-mode:lr-tb;text-anchor:start;fill:#000000;fill-opacity:1;stroke:none;stroke-width:0.01;stroke-miterlimit:4;stroke-dasharray:none"
           x="1.6843741"
           y="8.8129683"
           id="text147-0"><tspan
             sodipodi:role="line"
             id="tspan145-4"
             x="1.6843741"
             y="8.8129683"
             style="font-style:normal;font-variant:normal;font-weight:bold;font-stretch:normal;font-size:9.87778px;font-family:Helvetica;-inkscape-font-specification:'Helvetica, Bold';font-variant-ligatures:normal;font-variant-caps:normal;font-variant-numeric:normal;font-variant-east-asian:normal;text-align:start;writing-mode:lr-tb;text-anchor:start;stroke-width:0.01;stroke-miterlimit:4;stroke-dasharray:none">C</tspan></text>
      </g>
    </g>
  </g>
</svg>
