<?xml version="1.0" encoding="UTF-8" standalone="no"?>
<!-- Created with Inkscape (http://www.inkscape.org/) -->

<svg
   xmlns:osb="http://www.openswatchbook.org/uri/2009/osb"
   xmlns:dc="http://purl.org/dc/elements/1.1/"
   xmlns:cc="http://creativecommons.org/ns#"
   xmlns:rdf="http://www.w3.org/1999/02/22-rdf-syntax-ns#"
   xmlns:svg="http://www.w3.org/2000/svg"
   xmlns="http://www.w3.org/2000/svg"
   xmlns:xlink="http://www.w3.org/1999/xlink"
   xmlns:sodipodi="http://sodipodi.sourceforge.net/DTD/sodipodi-0.dtd"
   xmlns:inkscape="http://www.inkscape.org/namespaces/inkscape"
   width="2in"
   height="3.5in"
   viewBox="0 0 50.800001 88.900003"
   version="1.1"
   id="svg8"
   inkscape:version="0.92.4 5da689c313, 2019-01-14"
   sodipodi:docname="back_of_card.svg">
  <defs
     id="defs2">
    <linearGradient
       id="linearGradient1781"
       osb:paint="solid">
      <stop
         style="stop-color:#aaccff;stop-opacity:1;"
         offset="0"
         id="stop1779" />
    </linearGradient>
    <linearGradient
       id="linearGradient1775"
       osb:paint="solid">
      <stop
         style="stop-color:#aaccff;stop-opacity:1;"
         offset="0"
         id="stop1773" />
    </linearGradient>
    <linearGradient
       id="linearGradient871"
       osb:paint="solid">
      <stop
         style="stop-color:#000000;stop-opacity:1;"
         offset="0"
         id="stop869" />
    </linearGradient>
    <linearGradient
       id="linearGradient863"
       osb:paint="solid">
      <stop
         style="stop-color:#000000;stop-opacity:1;"
         offset="0"
         id="stop861" />
    </linearGradient>
    <linearGradient
       id="linearGradient4608"
       osb:paint="solid">
      <stop
         style="stop-color:#000000;stop-opacity:1;"
         offset="0"
         id="stop4606" />
    </linearGradient>
    <linearGradient
       id="linearGradient4600"
       osb:paint="solid">
      <stop
         style="stop-color:#000000;stop-opacity:1;"
         offset="0"
         id="stop4598" />
    </linearGradient>
    <linearGradient
       id="linearGradient4592"
       osb:paint="solid">
      <stop
         style="stop-color:#000000;stop-opacity:1;"
         offset="0"
         id="stop4590" />
    </linearGradient>
    <linearGradient
       id="linearGradient4584"
       osb:paint="solid">
      <stop
         style="stop-color:#000000;stop-opacity:1;"
         offset="0"
         id="stop4582" />
    </linearGradient>
    <linearGradient
       inkscape:collect="always"
       xlink:href="#linearGradient871"
       id="linearGradient1099"
       gradientUnits="userSpaceOnUse"
       x1="10.16"
       y1="44.450001"
       x2="40.639999"
       y2="44.450001"
       gradientTransform="matrix(0.77515381,0,0,0.58136525,5.7110951,18.608313)" />
  </defs>
  <sodipodi:namedview
     id="base"
     pagecolor="#ffffff"
     bordercolor="#666666"
     borderopacity="1.0"
     inkscape:pageopacity="0.0"
     inkscape:pageshadow="2"
     inkscape:zoom="2.4166667"
     inkscape:cx="22.965516"
     inkscape:cy="168"
     inkscape:document-units="in"
     inkscape:current-layer="layer4"
     showgrid="true"
     units="in"
     inkscape:window-width="1920"
     inkscape:window-height="1019"
     inkscape:window-x="0"
     inkscape:window-y="32"
     inkscape:window-maximized="1"
     showguides="false"
     inkscape:guide-bbox="true"
     inkscape:lockguides="false">
    <inkscape:grid
       type="xygrid"
       id="grid3732"
       units="in"
       spacingx="0.25400001"
       spacingy="0.25400001" />
    <sodipodi:guide
       position="1.27,87.630004"
       orientation="0,1"
       id="guide3735"
       inkscape:locked="false" />
    <sodipodi:guide
       position="1.27,87.630004"
       orientation="1,0"
       id="guide3737"
       inkscape:locked="false" />
    <sodipodi:guide
       position="49.530002,1.2700001"
       orientation="0,1"
       id="guide3739"
       inkscape:locked="false" />
    <sodipodi:guide
       position="49.530002,1.2700001"
       orientation="1,0"
       id="guide3741"
       inkscape:locked="false" />
    <sodipodi:guide
       position="25.400001,89.154004"
       orientation="1,0"
       id="guide3743"
       inkscape:locked="false" />
    <sodipodi:guide
       position="-10.16,44.450002"
       orientation="0,1"
       id="guide3745"
       inkscape:locked="false" />
    <sodipodi:guide
       position="10.16,76.200004"
       orientation="1,0"
       id="guide3748"
       inkscape:locked="false" />
    <sodipodi:guide
       position="-5.0800002,76.200004"
       orientation="0,1"
       id="guide3752"
       inkscape:locked="false" />
    <sodipodi:guide
       position="40.640001,67.310003"
       orientation="1,0"
       id="guide3757"
       inkscape:locked="false" />
    <sodipodi:guide
       position="-3.8100002,12.700001"
       orientation="0,1"
       id="guide3760"
       inkscape:locked="false" />
    <sodipodi:guide
       position="0,0"
       orientation="0,192"
       id="guide3762"
       inkscape:locked="false" />
    <sodipodi:guide
       position="50.800001,0"
       orientation="-336,0"
       id="guide3764"
       inkscape:locked="false" />
    <sodipodi:guide
       position="50.800001,88.900002"
       orientation="0,-192"
       id="guide3766"
       inkscape:locked="false" />
    <sodipodi:guide
       position="0,88.900002"
       orientation="336,0"
       id="guide3768"
       inkscape:locked="false" />
    <sodipodi:guide
       position="-3.8100002,64.770003"
       orientation="0,1"
       id="guide3771"
       inkscape:locked="false" />
    <sodipodi:guide
       position="-16.510001,24.130001"
       orientation="0,1"
       id="guide3773"
       inkscape:locked="false" />
  </sodipodi:namedview>
  <metadata
     id="metadata5">
    <rdf:RDF>
      <cc:Work
         rdf:about="">
        <dc:format>image/svg+xml</dc:format>
        <dc:type
           rdf:resource="http://purl.org/dc/dcmitype/StillImage" />
        <dc:title />
      </cc:Work>
    </rdf:RDF>
  </metadata>
  <g
     inkscape:groupmode="layer"
     id="layer4"
     inkscape:label="background">
    <rect
       inkscape:label="bkgrnd_blue_03"
       y="-2.0702276"
       x="-2.0702245"
       height="88.773254"
       width="50.673252"
       id="rect1223"
       style="display:inline;fill:#001a40;fill-opacity:1;stroke:#ffffff;stroke-width:0.12675102;stroke-miterlimit:4;stroke-dasharray:none;stroke-opacity:1;paint-order:normal" />
    <rect
       style="display:inline;fill:#003380;fill-opacity:1;stroke:#ffffff;stroke-width:0.12675102;stroke-miterlimit:4;stroke-dasharray:none;stroke-opacity:1;paint-order:normal"
       id="rect1225"
       width="50.673252"
       height="88.773254"
       x="-1.0034245"
       y="-1.0034275"
       inkscape:label="bkgrnd_blue_02"
       sodipodi:insensitive="true" />
    <rect
       style="display:inline;fill:#004cbf;stroke:#ffffff;stroke-width:0.12675102;stroke-miterlimit:4;stroke-dasharray:none;stroke-opacity:1;paint-order:normal;fill-opacity:1"
       id="rect1150"
       width="50.673252"
       height="88.773254"
       x="0.06337551"
       y="0.06337247"
       inkscape:label="bkgrnd_blue_01"
       sodipodi:insensitive="true" />
  </g>
  <g
     inkscape:groupmode="layer"
     id="layer2"
     inkscape:label="Border"
     style="display:inline" />
  <g
     inkscape:groupmode="layer"
     id="layer3"
     inkscape:label="Circles"
     style="display:inline" />
  <g
     inkscape:groupmode="layer"
     id="layer6"
     inkscape:label="design"
     sodipodi:insensitive="true"
     style="display:inline">
    <g
       id="g1133"
       style="display:inline;stroke:#aaccff"
       inkscape:label="white_design"
       transform="translate(0.20564781,-0.1436324)">
      <path
         id="rect1097"
         style="fill:none;stroke:#aaccff;stroke-width:1.77331352;stroke-miterlimit:4;stroke-dasharray:none"
         d="M 13.586658,32.636658 H 37.213344 V 56.263346 H 13.586658 Z M 10.160001,21.59 H 40.64 V 67.310001 H 10.160001 Z m 4.090811,57.383564 a 11.14919,8.8024139 0 0 1 11.14919,-8.802414 11.14919,8.8024139 0 0 1 11.149189,8.802414 11.14919,8.8024139 0 0 1 -11.149189,8.802414 11.14919,8.8024139 0 0 1 -11.14919,-8.802414 z m 0,-11.112495 a 11.14919,8.8024139 0 0 1 11.14919,-8.802414 11.14919,8.8024139 0 0 1 11.149189,8.802414 11.14919,8.8024139 0 0 1 -11.149189,8.802414 11.14919,8.8024139 0 0 1 -11.14919,-8.802414 z M 36.549191,10.141753 a 11.14919,8.8024139 0 0 1 -11.149189,8.802414 11.14919,8.8024139 0 0 1 -11.14919,-8.802414 11.14919,8.8024139 0 0 1 11.14919,-8.8024137 11.14919,8.8024139 0 0 1 11.149189,8.8024137 z m 0,10.623473 a 11.14919,8.8024139 0 0 1 -11.149189,8.802414 11.14919,8.8024139 0 0 1 -11.14919,-8.802414 11.14919,8.8024139 0 0 1 11.14919,-8.802414 11.14919,8.8024139 0 0 1 11.149189,8.802414 z m 4.09081,33.282759 a 15.24,12.032155 0 0 1 -15.239999,12.032155 15.24,12.032155 0 0 1 -15.24,-12.032155 15.24,12.032155 0 0 1 15.24,-12.032155 15.24,12.032155 0 0 1 15.239999,12.032155 z m 0,-19.049999 a 15.24,12.032155 0 0 1 -15.239999,12.032155 15.24,12.032155 0 0 1 -15.24,-12.032155 15.24,12.032155 0 0 1 15.24,-12.032155 15.24,12.032155 0 0 1 15.239999,12.032155 z M 2.586009,3.8560071 H 48.213992 V 85.043995 H 2.586009 Z M 6.3906641,10.815331 H 44.409337 V 78.084672 H 6.3906641 Z"
         inkscape:connector-curvature="0" />
    </g>
    <g
       style="display:inline"
       id="g1157"
       inkscape:label="black_design"
       sodipodi:insensitive="true">
      <path
         inkscape:connector-curvature="0"
         d="M 13.586658,32.636658 H 37.213344 V 56.263346 H 13.586658 Z M 10.160001,21.59 H 40.64 V 67.310001 H 10.160001 Z m 4.090811,57.383564 a 11.14919,8.8024139 0 0 1 11.14919,-8.802414 11.14919,8.8024139 0 0 1 11.149189,8.802414 11.14919,8.8024139 0 0 1 -11.149189,8.802414 11.14919,8.8024139 0 0 1 -11.14919,-8.802414 z m 0,-11.112495 a 11.14919,8.8024139 0 0 1 11.14919,-8.802414 11.14919,8.8024139 0 0 1 11.149189,8.802414 11.14919,8.8024139 0 0 1 -11.149189,8.802414 11.14919,8.8024139 0 0 1 -11.14919,-8.802414 z M 36.549191,10.141753 a 11.14919,8.8024139 0 0 1 -11.149189,8.802414 11.14919,8.8024139 0 0 1 -11.14919,-8.802414 11.14919,8.8024139 0 0 1 11.14919,-8.8024137 11.14919,8.8024139 0 0 1 11.149189,8.8024137 z m 0,10.623473 a 11.14919,8.8024139 0 0 1 -11.149189,8.802414 11.14919,8.8024139 0 0 1 -11.14919,-8.802414 11.14919,8.8024139 0 0 1 11.14919,-8.802414 11.14919,8.8024139 0 0 1 11.149189,8.802414 z m 4.09081,33.282759 a 15.24,12.032155 0 0 1 -15.239999,12.032155 15.24,12.032155 0 0 1 -15.24,-12.032155 15.24,12.032155 0 0 1 15.24,-12.032155 15.24,12.032155 0 0 1 15.239999,12.032155 z m 0,-19.049999 a 15.24,12.032155 0 0 1 -15.239999,12.032155 15.24,12.032155 0 0 1 -15.24,-12.032155 15.24,12.032155 0 0 1 15.24,-12.032155 15.24,12.032155 0 0 1 15.239999,12.032155 z M 2.586009,3.8560071 H 48.213992 V 85.043995 H 2.586009 Z M 6.3906641,10.815331 H 44.409337 V 78.084672 H 6.3906641 Z"
         style="fill:none;stroke:url(#linearGradient1099);stroke-width:1.77331352;stroke-miterlimit:4;stroke-dasharray:none"
         id="path1155" />
    </g>
  </g>
</svg>
