<?xml version="1.0" encoding="UTF-8" standalone="no"?>
<svg
   xmlns:osb="http://www.openswatchbook.org/uri/2009/osb"
   xmlns:dc="http://purl.org/dc/elements/1.1/"
   xmlns:cc="http://creativecommons.org/ns#"
   xmlns:rdf="http://www.w3.org/1999/02/22-rdf-syntax-ns#"
   xmlns:svg="http://www.w3.org/2000/svg"
   xmlns="http://www.w3.org/2000/svg"
   xmlns:xlink="http://www.w3.org/1999/xlink"
   xmlns:sodipodi="http://sodipodi.sourceforge.net/DTD/sodipodi-0.dtd"
   xmlns:inkscape="http://www.inkscape.org/namespaces/inkscape"
   width="234"
   height="332"
   viewBox="0 0 61.912498 87.841669"
   version="1.1"
   id="svg120"
   inkscape:version="1.0.1 (c497b03c, 2020-09-10)"
   sodipodi:docname="command_crew_initiate_action_234x332_px.svg"
   inkscape:export-filename="/Users/aroberts/GIT_Repos/scifi-solitaire/spacestation/appfactory/godot/assets/cards/command/crew/4/initiate_action.png"
   inkscape:export-xdpi="96"
   inkscape:export-ydpi="96">
  <defs
     id="defs114">
    <linearGradient
       id="linearGradient2199"
       osb:paint="solid">
      <stop
         style="stop-color:#7013ec;stop-opacity:1;"
         offset="0"
         id="stop2197" />
    </linearGradient>
    <linearGradient
       id="linearGradient4767"
       osb:paint="solid">
      <stop
         style="stop-color:#000000;stop-opacity:1;"
         offset="0"
         id="stop4765" />
    </linearGradient>
    <linearGradient
       inkscape:collect="always"
       xlink:href="#linearGradient4767"
       id="linearGradient2275"
       x1="0.45800001"
       y1="291.28497"
       x2="9.702001"
       y2="291.28497"
       gradientUnits="userSpaceOnUse"
       gradientTransform="matrix(1.0478772,0,0,0.92008679,-0.03355002,22.852182)" />
    <linearGradient
       inkscape:collect="always"
       xlink:href="#linearGradient4767"
       id="linearGradient1687"
       gradientUnits="userSpaceOnUse"
       gradientTransform="matrix(1.0478772,0,0,0.92008679,-0.03355002,22.852182)"
       x1="0.45800001"
       y1="291.28497"
       x2="9.702001"
       y2="291.28497" />
    <linearGradient
       inkscape:collect="always"
       xlink:href="#linearGradient4767"
       id="linearGradient2275-4"
       x1="0.45800001"
       y1="291.28497"
       x2="9.702001"
       y2="291.28497"
       gradientUnits="userSpaceOnUse"
       gradientTransform="matrix(1.0498247,0,0,0.92179712,-0.03744473,22.360678)" />
    <linearGradient
       inkscape:collect="always"
       xlink:href="#linearGradient4767"
       id="linearGradient4566"
       x1="3.9370004"
       y1="5.8420005"
       x2="7.3660004"
       y2="5.8420005"
       gradientUnits="userSpaceOnUse" />
    <linearGradient
       inkscape:collect="always"
       xlink:href="#linearGradient4767"
       id="linearGradient4566-6"
       x1="3.9370005"
       y1="5.8420005"
       x2="7.3660002"
       y2="5.8420005"
       gradientUnits="userSpaceOnUse" />
    <linearGradient
       inkscape:collect="always"
       xlink:href="#linearGradient4767"
       id="linearGradient1979"
       gradientUnits="userSpaceOnUse"
       gradientTransform="matrix(1.0498247,0,0,0.92179712,-0.03744473,22.360678)"
       x1="0.45800001"
       y1="291.28497"
       x2="9.702001"
       y2="291.28497" />
    <linearGradient
       inkscape:collect="always"
       xlink:href="#linearGradient4767"
       id="linearGradient4566-9"
       x1="3.9370005"
       y1="5.8420005"
       x2="7.3660002"
       y2="5.8420005"
       gradientUnits="userSpaceOnUse" />
    <linearGradient
       inkscape:collect="always"
       xlink:href="#linearGradient4767"
       id="linearGradient2002"
       gradientUnits="userSpaceOnUse"
       gradientTransform="matrix(1.0498247,0,0,0.92179712,-0.03744473,22.360678)"
       x1="0.45800001"
       y1="291.28497"
       x2="9.702001"
       y2="291.28497" />
    <linearGradient
       inkscape:collect="always"
       xlink:href="#linearGradient4767"
       id="linearGradient4566-64"
       x1="3.9370005"
       y1="5.8420005"
       x2="7.3660002"
       y2="5.8420005"
       gradientUnits="userSpaceOnUse" />
    <linearGradient
       inkscape:collect="always"
       xlink:href="#linearGradient4767"
       id="linearGradient2025"
       gradientUnits="userSpaceOnUse"
       gradientTransform="matrix(1.0498247,0,0,0.92179712,-0.03744473,22.360678)"
       x1="0.45800001"
       y1="291.28497"
       x2="9.702001"
       y2="291.28497" />
    <linearGradient
       inkscape:collect="always"
       xlink:href="#linearGradient4767"
       id="linearGradient4566-8"
       x1="3.9370005"
       y1="5.8420005"
       x2="7.3660002"
       y2="5.8420005"
       gradientUnits="userSpaceOnUse" />
    <linearGradient
       inkscape:collect="always"
       xlink:href="#linearGradient4767"
       id="linearGradient2048"
       gradientUnits="userSpaceOnUse"
       gradientTransform="matrix(1.0545276,0,0,0.87393321,-0.05170253,36.041619)"
       x1="0.45800001"
       y1="291.28497"
       x2="9.702001"
       y2="291.28497" />
    <linearGradient
       inkscape:collect="always"
       xlink:href="#linearGradient2199"
       id="linearGradient2201"
       x1="3.8777709"
       y1="5.8420005"
       x2="7.425224"
       y2="5.8420005"
       gradientUnits="userSpaceOnUse" />
  </defs>
  <sodipodi:namedview
     id="base"
     pagecolor="#ffffff"
     bordercolor="#666666"
     borderopacity="1.0"
     inkscape:pageopacity="0.0"
     inkscape:pageshadow="2"
     inkscape:zoom="1.8865695"
     inkscape:cx="109.04906"
     inkscape:cy="166"
     inkscape:document-units="px"
     inkscape:current-layer="layer3-5"
     inkscape:document-rotation="0"
     showgrid="true"
     units="px"
     inkscape:window-width="1440"
     inkscape:window-height="855"
     inkscape:window-x="0"
     inkscape:window-y="23"
     inkscape:window-maximized="1">
    <inkscape:grid
       type="xygrid"
       id="grid122"
       empspacing="10" />
  </sodipodi:namedview>
  <metadata
     id="metadata117">
    <rdf:RDF>
      <cc:Work
         rdf:about="">
        <dc:format>image/svg+xml</dc:format>
        <dc:type
           rdf:resource="http://purl.org/dc/dcmitype/StillImage" />
        <dc:title />
      </cc:Work>
    </rdf:RDF>
  </metadata>
  <g
     inkscape:groupmode="layer"
     id="layer3"
     inkscape:label="Background"
     sodipodi:insensitive="true">
    <rect
       style="fill:#ffffff;stroke:#000000;stroke-width:2.12947;stroke-linejoin:round;stroke-miterlimit:4;stroke-dasharray:none"
       id="rect462"
       width="59.783031"
       height="85.712204"
       x="1.0647345"
       y="1.0647345"
       rx="3.9970529" />
  </g>
  <g
     inkscape:groupmode="layer"
     id="layer2"
     inkscape:label="Center_Img"
     sodipodi:insensitive="true">
    <g
       id="g1935-50"
       transform="matrix(3.9612878,0,0,4.1743933,11.126577,22.323085)">
      <g
         inkscape:label="Border"
         id="layer1-4-68"
         transform="translate(-0.2994338,-285.43133)">
        <rect
           style="fill:none;stroke:url(#linearGradient2048);stroke-width:0.96;stroke-miterlimit:4;stroke-dasharray:none;paint-order:normal"
           id="rect821-99-0"
           width="9.6426029"
           height="9.1011429"
           x="0.48399758"
           y="286.05463"
           ry="1.775838" />
      </g>
      <g
         id="layer2-2-6"
         inkscape:label="Initiate_Action"
         transform="translate(-0.44326098,-0.54113507)">
        <path
           transform="matrix(1.6227068,0,0,1.7566317,-3.7215971,-4.547243)"
           style="stroke:url(#linearGradient4566-8);stroke-width:0.118459;stroke-linecap:round;stroke-linejoin:round;stroke-miterlimit:4;stroke-dasharray:none;fill:url(#linearGradient2201);fill-opacity:1"
           inkscape:transform-center-x="-0.92737702"
           d="m 7.3660004,5.8420005 -1.7145,0.9898671 -1.7145,0.989867 V 5.8420004 3.8622664 l 1.7145001,0.9898671 z"
           id="path4559-4"
           inkscape:connector-curvature="0" />
      </g>
    </g>
  </g>
  <g
     inkscape:groupmode="layer"
     id="layer4"
     inkscape:label="Top_Left"
     sodipodi:insensitive="true">
    <g
       id="g1935"
       transform="translate(3.9647511,3.9641019)">
      <g
         inkscape:label="Border"
         id="layer1-4"
         transform="translate(0,-285.56998)">
        <rect
           style="fill:none;stroke:url(#linearGradient2275-4);stroke-width:0.983737;stroke-miterlimit:4;stroke-dasharray:none;paint-order:normal"
           id="rect821-99"
           width="9.5995989"
           height="9.599597"
           x="0.4958663"
           y="286.0665"
           ry="1.8730978" />
      </g>
      <g
         id="layer2-2"
         inkscape:label="Initiate_Action"
         transform="translate(-0.15346048,-0.41868398)">
        <path
           transform="matrix(1.6227068,0,0,1.7566317,-3.7215971,-4.547243)"
           style="stroke:url(#linearGradient4566);stroke-width:0.118459;stroke-linecap:round;stroke-linejoin:round;stroke-miterlimit:4;stroke-dasharray:none"
           inkscape:transform-center-x="-0.92737702"
           d="m 7.3660004,5.8420005 -1.7145,0.9898671 -1.7145,0.989867 V 5.8420004 3.8622664 l 1.7145001,0.9898671 z"
           id="path4559"
           inkscape:connector-curvature="0" />
      </g>
    </g>
  </g>
  <g
     inkscape:groupmode="layer"
     id="layer5"
     inkscape:label="Top_Right"
     sodipodi:insensitive="true">
    <g
       id="g1935-5"
       transform="translate(47.356419,3.9641007)">
      <g
         inkscape:label="Border"
         id="layer1-4-6"
         transform="translate(0,-285.56998)">
        <rect
           style="fill:none;stroke:url(#linearGradient1979);stroke-width:0.983737;stroke-miterlimit:4;stroke-dasharray:none;paint-order:normal"
           id="rect821-99-8"
           width="9.5995989"
           height="9.599597"
           x="0.4958663"
           y="286.0665"
           ry="1.8730978" />
      </g>
      <g
         id="layer2-2-4"
         inkscape:label="Initiate_Action"
         transform="translate(-0.15346048,-0.41868398)">
        <path
           transform="matrix(1.6227068,0,0,1.7566317,-3.7215971,-4.547243)"
           style="stroke:url(#linearGradient4566-6);stroke-width:0.118459;stroke-linecap:round;stroke-linejoin:round;stroke-miterlimit:4;stroke-dasharray:none"
           inkscape:transform-center-x="-0.92737702"
           d="m 7.3660004,5.8420005 -1.7145,0.9898671 -1.7145,0.989867 V 5.8420004 3.8622664 l 1.7145001,0.9898671 z"
           id="path4559-2"
           inkscape:connector-curvature="0" />
      </g>
    </g>
  </g>
  <g
     inkscape:groupmode="layer"
     id="layer6"
     inkscape:label="Bott_Left"
     sodipodi:insensitive="true">
    <g
       id="g1935-9"
       transform="rotate(180,7.278042,41.938783)">
      <g
         inkscape:label="Border"
         id="layer1-4-8"
         transform="translate(0,-285.56998)">
        <rect
           style="fill:none;stroke:url(#linearGradient2002);stroke-width:0.983737;stroke-miterlimit:4;stroke-dasharray:none;paint-order:normal"
           id="rect821-99-85"
           width="9.5995989"
           height="9.599597"
           x="0.4958663"
           y="286.0665"
           ry="1.8730978" />
      </g>
      <g
         id="layer2-2-3"
         inkscape:label="Initiate_Action"
         transform="translate(-0.15346048,-0.41868398)">
        <path
           transform="matrix(1.6227068,0,0,1.7566317,-3.7215971,-4.547243)"
           style="stroke:url(#linearGradient4566-9);stroke-width:0.118459;stroke-linecap:round;stroke-linejoin:round;stroke-miterlimit:4;stroke-dasharray:none"
           inkscape:transform-center-x="-0.92737702"
           d="m 7.3660004,5.8420005 -1.7145,0.9898671 -1.7145,0.989867 V 5.8420004 3.8622664 l 1.7145001,0.9898671 z"
           id="path4559-5"
           inkscape:connector-curvature="0" />
      </g>
    </g>
  </g>
  <g
     inkscape:groupmode="layer"
     id="layer7"
     inkscape:label="Bott_Right"
     style="display:inline"
     sodipodi:insensitive="true">
    <g
       id="g1935-7"
       transform="rotate(180,28.973875,41.938783)">
      <g
         inkscape:label="Border"
         id="layer1-4-9"
         transform="translate(0,-285.56998)">
        <rect
           style="fill:none;stroke:url(#linearGradient2025);stroke-width:0.983737;stroke-miterlimit:4;stroke-dasharray:none;paint-order:normal"
           id="rect821-99-6"
           width="9.5995989"
           height="9.599597"
           x="0.4958663"
           y="286.0665"
           ry="1.8730978" />
      </g>
      <g
         id="layer2-2-1"
         inkscape:label="Initiate_Action"
         transform="translate(-0.15346048,-0.41868398)">
        <path
           transform="matrix(1.6227068,0,0,1.7566317,-3.7215971,-4.547243)"
           style="stroke:url(#linearGradient4566-64);stroke-width:0.118459;stroke-linecap:round;stroke-linejoin:round;stroke-miterlimit:4;stroke-dasharray:none"
           inkscape:transform-center-x="-0.92737702"
           d="m 7.3660004,5.8420005 -1.7145,0.9898671 -1.7145,0.989867 V 5.8420004 3.8622664 l 1.7145001,0.9898671 z"
           id="path4559-0"
           inkscape:connector-curvature="0" />
      </g>
    </g>
  </g>
  <g
     inkscape:groupmode="layer"
     id="layer8"
     inkscape:label="Top_C"
     sodipodi:insensitive="true">
    <g
       id="g1648"
       transform="translate(25.876249,3.9707576)">
      <g
         inkscape:label="Border"
         id="layer1"
         transform="translate(0,-285.56998)">
        <rect
           style="fill:none;stroke:url(#linearGradient2275);stroke-width:1.00155;stroke-miterlimit:4;stroke-dasharray:none;paint-order:normal"
           id="rect821"
           width="9.58179"
           height="9.5817852"
           x="0.49877164"
           y="286.06876"
           ry="1.8696227" />
      </g>
      <g
         id="layer3-5"
         inkscape:label="Letter">
        <text
           xml:space="preserve"
           style="font-style:normal;font-variant:normal;font-weight:bold;font-stretch:normal;font-size:9.87777999999999956px;line-height:1.25;font-family:Helvetica;-inkscape-font-specification:'Helvetica, Bold';font-variant-ligatures:normal;font-variant-caps:normal;font-variant-numeric:normal;font-variant-east-asian:normal;text-align:start;letter-spacing:0px;word-spacing:0px;writing-mode:lr-tb;text-anchor:start;fill:url(#linearGradient2199);fill-opacity:1;stroke:none;stroke-width:0.01;stroke-miterlimit:4;stroke-dasharray:none;"
           x="1.6843741"
           y="8.8129683"
           id="text147"><tspan
             sodipodi:role="line"
             id="tspan145"
             x="1.6843741"
             y="8.8129683"
             style="font-style:normal;font-variant:normal;font-weight:bold;font-stretch:normal;font-size:9.87777999999999956px;font-family:Helvetica;-inkscape-font-specification:'Helvetica, Bold';font-variant-ligatures:normal;font-variant-caps:normal;font-variant-numeric:normal;font-variant-east-asian:normal;text-align:start;writing-mode:lr-tb;text-anchor:start;stroke-width:0.01;stroke-miterlimit:4;stroke-dasharray:none;fill:url(#linearGradient2199);">C</tspan></text>
      </g>
    </g>
  </g>
  <g
     id="layer9"
     inkscape:label="Bott_C"
     sodipodi:insensitive="true">
    <g
       id="g1648-2"
       transform="rotate(180,18.227735,41.93546)">
      <g
         inkscape:label="Border"
         id="layer1-8"
         transform="translate(0,-285.56998)">
        <rect
           style="fill:none;stroke:url(#linearGradient1687);stroke-width:1.00155;stroke-miterlimit:4;stroke-dasharray:none;paint-order:normal"
           id="rect821-9"
           width="9.58179"
           height="9.5817852"
           x="0.49877164"
           y="286.06876"
           ry="1.8696227" />
      </g>
      <g
         id="layer3-5-6"
         inkscape:label="Letter">
        <text
           xml:space="preserve"
           style="font-style:normal;font-variant:normal;font-weight:bold;font-stretch:normal;font-size:9.87778px;line-height:1.25;font-family:Helvetica;-inkscape-font-specification:'Helvetica, Bold';font-variant-ligatures:normal;font-variant-caps:normal;font-variant-numeric:normal;font-variant-east-asian:normal;text-align:start;letter-spacing:0px;word-spacing:0px;writing-mode:lr-tb;text-anchor:start;fill:url(#linearGradient2199);fill-opacity:1;stroke:none;stroke-width:0.01;stroke-miterlimit:4;stroke-dasharray:none"
           x="1.6843741"
           y="8.8129683"
           id="text147-0"><tspan
             sodipodi:role="line"
             id="tspan145-4"
             x="1.6843741"
             y="8.8129683"
             style="font-style:normal;font-variant:normal;font-weight:bold;font-stretch:normal;font-size:9.87778px;font-family:Helvetica;-inkscape-font-specification:'Helvetica, Bold';font-variant-ligatures:normal;font-variant-caps:normal;font-variant-numeric:normal;font-variant-east-asian:normal;text-align:start;writing-mode:lr-tb;text-anchor:start;fill:url(#linearGradient2199);stroke-width:0.01;stroke-miterlimit:4;stroke-dasharray:none">C</tspan></text>
      </g>
    </g>
  </g>
</svg>
